<?xml version="1.0" encoding="UTF-8" standalone="no"?>
<!-- Created with Inkscape (http://www.inkscape.org/) -->

<svg
   xmlns:dc="http://purl.org/dc/elements/1.1/"
   xmlns:cc="http://creativecommons.org/ns#"
   xmlns:rdf="http://www.w3.org/1999/02/22-rdf-syntax-ns#"
   xmlns:svg="http://www.w3.org/2000/svg"
   xmlns="http://www.w3.org/2000/svg"
   xmlns:sodipodi="http://sodipodi.sourceforge.net/DTD/sodipodi-0.dtd"
   xmlns:inkscape="http://www.inkscape.org/namespaces/inkscape"
   width="83.626038mm"
   height="102.06973mm"
   viewBox="0 0 83.626038 102.06973"
   version="1.1"
   id="svg910"
   sodipodi:docname="head.svg"
   inkscape:version="0.92.5 (2060ec1f9f, 2020-04-08)">
  <defs
     id="defs904" />
  <sodipodi:namedview
     id="base"
     pagecolor="#ffffff"
     bordercolor="#666666"
     borderopacity="1.0"
     inkscape:pageopacity="0.0"
     inkscape:pageshadow="2"
     inkscape:zoom="0.7"
     inkscape:cx="340.72105"
     inkscape:cy="159.73365"
     inkscape:document-units="mm"
     inkscape:current-layer="layer1"
     showgrid="false"
     inkscape:window-width="1857"
     inkscape:window-height="1057"
     inkscape:window-x="1975"
     inkscape:window-y="-8"
     inkscape:window-maximized="1"
     showguides="false" />
  <metadata
     id="metadata907">
    <rdf:RDF>
      <cc:Work
         rdf:about="">
        <dc:format>image/svg+xml</dc:format>
        <dc:type
           rdf:resource="http://purl.org/dc/dcmitype/StillImage" />
      </cc:Work>
    </rdf:RDF>
  </metadata>
  <g
     inkscape:label="Calque 1"
     inkscape:groupmode="layer"
     id="layer1"
     transform="translate(-73.207921,-91.663718)">
    <path
       style="fill:#000000;stroke-width:0.14753264"
       d="m 121.71292,192.8412 c 0.38216,-1.97801 1.52314,-6.34957 2.1665,-8.30075 0.36123,-1.09543 1.08111,-2.85475 1.59978,-3.90961 1.08359,-2.20388 1.97016,-3.32446 2.83332,-3.58119 0.83692,-0.24893 2.77593,-0.44348 6.9831,-0.70066 9.58666,-0.58602 12.29049,-1.30768 13.56245,-3.61986 0.49024,-0.89117 0.52576,-1.04656 0.57131,-2.49934 0.04,-1.27895 -0.0136,-1.78064 -0.30807,-2.87689 -1.23452,-4.59594 -1.19992,-4.41422 -0.98753,-5.18561 0.16537,-0.6006 0.42844,-0.94372 1.63568,-2.13355 1.68109,-1.65687 1.84689,-2.05104 1.32028,-3.13886 -0.17488,-0.36126 -0.41394,-0.73648 -0.53128,-0.83385 -0.17861,-0.14825 -0.0453,-0.33623 0.81868,-1.15532 l 1.03201,-0.97828 -0.28258,-0.74359 c -0.67142,-1.76685 -0.95778,-4.56846 -0.58146,-5.68895 0.24533,-0.73051 0.50312,-0.96852 1.7535,-1.61903 2.15176,-1.11948 3.53173,-2.74835 3.53534,-4.17298 0.003,-1.07178 -0.89088,-2.40886 -5.26357,-7.87594 -3.14572,-3.93303 -3.82761,-4.91233 -4.00541,-5.7524 -0.17559,-0.82971 -0.28605,-2.15929 -0.46288,-5.57156 -0.15745,-3.03869 -0.31352,-3.60042 -1.94322,-6.9943 -0.64649,-1.34629 -1.475,-3.31087 -1.84116,-4.36572 -1.49929,-4.31922 -3.35609,-7.25214 -6.4914,-10.25352 -5.2078,-4.985362 -12.04494,-7.806292 -21.69397,-8.95067 -3.08684,-0.36611 -10.3294,-0.367031 -13.32663,-9.93e-4 -6.937365,0.845616 -12.53222,2.678327 -16.74497,5.485149 -7.77789,5.182194 -12.22425,16.162934 -11.82845,29.211654 0.17956,5.91974 0.94379,9.1063 3.00066,12.51138 0.30366,0.50276 1.5179,2.37442 2.69827,4.15928 2.39908,3.62767 3.77259,6.20267 4.29569,8.05335 0.31119,1.10097 0.3507,1.54277 0.34866,3.89732 -0.003,3.53169 -0.49807,6.77609 -2.00001,13.1092 -0.32437,1.36777 -0.55674,2.5199 -0.51634,2.56028 0.0404,0.0404 0.6253,0.13324 1.29981,0.20635 9.578275,1.03817 19.09293,4.65389 26.84706,10.20231 4.21938,3.01918 8.65479,7.38991 11.33917,11.17385 0.43175,0.60857 0.8277,1.1572 0.87992,1.21918 0.0523,0.062 0.18171,-0.33636 0.28774,-0.88519 z"
       id="path1480"
       inkscape:connector-curvature="0"
       sodipodi:nodetypes="csccssccccccccscccscscsssssscsccsccscccc" />
  </g>
</svg>
