%!PS-Adobe-3.0 EPSF-3.0
%%DocumentNeededResources: font Helvetica
%%+ font Helvetica-Bold
%%+ font Helvetica-Oblique
%%+ font Helvetica-BoldOblique
%%+ font Symbol
%%Title: R Graphics Output
%%Creator: R Software
%%Pages: (atend)
%%BoundingBox: 0 0 450 413
%%EndComments
%%BeginProlog
/bp  { gs sRGB gs } def
% begin .ps.prolog
/gs  { gsave } bind def
/gr  { grestore } bind def
/ep  { showpage gr gr } bind def
/m   { moveto } bind def
/l  { rlineto } bind def
/np  { newpath } bind def
/cp  { closepath } bind def
/f   { fill } bind def
/o   { stroke } bind def
/c   { newpath 0 360 arc } bind def
/r   { 4 2 roll moveto 1 copy 3 -1 roll exch 0 exch rlineto 0 rlineto -1 mul 0 exch rlineto closepath } bind def
/p1  { stroke } bind def
/p2  { gsave bg fill grestore newpath } bind def
/p3  { gsave bg fill grestore stroke } bind def
/p6  { gsave bg eofill grestore newpath } bind def
/p7  { gsave bg eofill grestore stroke } bind def
/t   { 5 -2 roll moveto gsave rotate
       1 index stringwidth pop
       mul neg 0 rmoveto show grestore } bind def
/ta  { 4 -2 roll moveto gsave rotate show } bind def
/tb  { 2 -1 roll 0 rmoveto show } bind def
/cl  { grestore gsave newpath 3 index 3 index moveto 1 index
       4 -1 roll lineto  exch 1 index lineto lineto
       closepath clip newpath } bind def
/rgb { setrgbcolor } bind def
/s   { scalefont setfont } bind def
% end   .ps.prolog
/sRGB { [ /CIEBasedABC
          << /DecodeLMN
               [ { dup 0.03928 le
                        {12.92321 div}
                        {0.055 add 1.055 div 2.4 exp }
                     ifelse
                 } bind dup dup
               ]
             /MatrixLMN [0.412457 0.212673 0.019334
                         0.357576 0.715152 0.119192
                         0.180437 0.072175 0.950301]
             /WhitePoint [0.9505 1.0 1.0890]
           >>
         ] setcolorspace } bind def
/srgb { setcolor } bind def
% begin encoding
/WinAnsiEncoding [
 /.notdef /.notdef /.notdef /.notdef /.notdef /.notdef /.notdef /.notdef
 /.notdef /.notdef /.notdef /.notdef /.notdef /.notdef /.notdef /.notdef
 /.notdef /.notdef /.notdef /.notdef /.notdef /.notdef /.notdef /.notdef
 /.notdef /.notdef /.notdef /.notdef /.notdef /.notdef /.notdef /.notdef
 /space /exclam /quotedbl /numbersign /dollar /percent /ampersand /quoteright
 /parenleft /parenright /asterisk /plus /comma /minus /period /slash
 /zero /one /two /three /four /five /six /seven
 /eight /nine /colon /semicolon /less /equal /greater /question
 /at /A /B /C /D /E /F /G
 /H /I /J /K /L /M /N /O
 /P /Q /R /S /T /U /V /W
 /X /Y /Z /bracketleft /backslash /bracketright /asciicircum /underscore
 /grave /a /b /c /d /e /f /g
 /h /i /j /k /l /m /n /o
 /p /q /r /s /t /u /v /w
 /x /y /z /braceleft /bar /braceright /asciitilde /.notdef
 /Euro /.notdef /quotesinglbase /florin /quotedblbase /ellipsis /dagger /daggerdbl
 /circumflex /perthousand /Scaron /guilsinglleft /OE /.notdef /Zcaron /.notdef
 /.notdef /quoteleft /quoteright /quotedblleft /quotedblright /bullet /endash /emdash
 /tilde /trademark /scaron /guilsinglright /oe /.notdef /zcaron /Ydieresis
 /space /exclamdown /cent /sterling /currency /yen /brokenbar /section
 /dieresis /copyright /ordfeminine /guillemotleft /logicalnot /hyphen /registered /macron
 /degree /plusminus /twosuperior /threesuperior /acute /mu /paragraph /periodcentered
 /cedilla /onesuperior /ordmasculine /guillemotright /onequarter /onehalf /threequarters /questiondown
 /Agrave /Aacute /Acircumflex /Atilde /Adieresis /Aring /AE /Ccedilla
 /Egrave /Eacute /Ecircumflex /Edieresis /Igrave /Iacute /Icircumflex /Idieresis
 /Eth /Ntilde /Ograve /Oacute /Ocircumflex /Otilde /Odieresis /multiply
 /Oslash /Ugrave /Uacute /Ucircumflex /Udieresis /Yacute /Thorn /germandbls
 /agrave /aacute /acircumflex /atilde /adieresis /aring /ae /ccedilla
 /egrave /eacute /ecircumflex /edieresis /igrave /iacute /icircumflex /idieresis
 /eth /ntilde /ograve /oacute /ocircumflex /otilde /odieresis /divide
 /oslash /ugrave /uacute /ucircumflex /udieresis /yacute /thorn /ydieresis
]
 def
% end encoding
%%IncludeResource: font Helvetica
/Helvetica findfont
dup length dict begin
  {1 index /FID ne {def} {pop pop} ifelse} forall
  /Encoding WinAnsiEncoding def
  currentdict
  end
/Font1 exch definefont pop
%%IncludeResource: font Helvetica-Bold
/Helvetica-Bold findfont
dup length dict begin
  {1 index /FID ne {def} {pop pop} ifelse} forall
  /Encoding WinAnsiEncoding def
  currentdict
  end
/Font2 exch definefont pop
%%IncludeResource: font Helvetica-Oblique
/Helvetica-Oblique findfont
dup length dict begin
  {1 index /FID ne {def} {pop pop} ifelse} forall
  /Encoding WinAnsiEncoding def
  currentdict
  end
/Font3 exch definefont pop
%%IncludeResource: font Helvetica-BoldOblique
/Helvetica-BoldOblique findfont
dup length dict begin
  {1 index /FID ne {def} {pop pop} ifelse} forall
  /Encoding WinAnsiEncoding def
  currentdict
  end
/Font4 exch definefont pop
%%IncludeResource: font Symbol
/Symbol findfont
dup length dict begin
  {1 index /FID ne {def} {pop pop} ifelse} forall
  currentdict
  end
/Font5 exch definefont pop
%%EndProlog
0.00 0.00 450.00 412.50 cl
%%Page: 1 1
bp
/bg { 1 1 1 srgb } def
0.00 0.00 450.00 412.50 r p2
59.04 73.44 419.76 353.46 cl
1 0 0 srgb
0.75 setlinewidth
[] 0 setdash
1 setlinecap
1 setlinejoin
10.00 setmiterlimit
109.51 122.97 2.70 c p1
146.62 143.54 2.70 c p1
183.73 161.16 2.70 c p1
220.84 179.19 2.70 c p1
257.96 203.45 2.70 c p1
295.07 226.21 2.70 c p1
332.18 247.47 2.70 c p1
369.29 270.33 2.70 c p1
0.00 0.00 450.00 412.50 cl
0 0 0 srgb
0.75 setlinewidth
[] 0 setdash
1 setlinecap
1 setlinejoin
10.00 setmiterlimit
np
72.40 73.44 m
296.89 0 l
o
np
72.40 73.44 m
0 -7.20 l
o
np
146.62 73.44 m
0 -7.20 l
o
np
220.84 73.44 m
0 -7.20 l
o
np
295.07 73.44 m
0 -7.20 l
o
np
369.29 73.44 m
0 -7.20 l
o
/Font1 findfont 12 s
72.40 47.52 (20) .5 0 t
146.62 47.52 (30) .5 0 t
220.84 47.52 (40) .5 0 t
295.07 47.52 (50) .5 0 t
369.29 47.52 (60) .5 0 t
np
59.04 83.81 m
0 259.28 l
o
np
59.04 83.81 m
-7.20 0 l
o
np
59.04 148.63 m
-7.20 0 l
o
np
59.04 213.45 m
-7.20 0 l
o
np
59.04 278.27 m
-7.20 0 l
o
np
59.04 343.09 m
-7.20 0 l
o
41.76 83.81 (20) .5 90 t
41.76 148.63 (40) .5 90 t
41.76 213.45 (60) .5 90 t
41.76 278.27 (80) .5 90 t
41.76 343.09 (100) .5 90 t
np
59.04 73.44 m
360.72 0 l
0 280.02 l
-360.72 0 l
0 -280.02 l
o
0.00 0.00 450.00 412.50 cl
/Font2 findfont 14 s
0 0 0 srgb
239.40 377.95 ( ) .5 0 t
/Font1 findfont 12 s
239.40 18.72 (Real distance \(cm\)) .5 0 t
12.96 149.10 (P) 90 ta
-0.600 (erceiv) tb
-0.300 (ed distance \(cm\)) tb gr
59.04 73.44 419.76 353.46 cl
0 1 0 srgb
0.75 setlinewidth
[] 0 setdash
1 setlinecap
1 setlinejoin
10.00 setmiterlimit
102.09 125.38 2.70 c p1
139.20 146.48 2.70 c p1
176.31 163.61 2.70 c p1
213.42 181.08 2.70 c p1
250.53 198.49 2.70 c p1
287.64 223.99 2.70 c p1
324.76 243.87 2.70 c p1
361.87 265.04 2.70 c p1
0 0 1 srgb
116.93 124.08 2.70 c p1
154.04 139.50 2.70 c p1
191.16 157.21 2.70 c p1
228.27 181.23 2.70 c p1
265.38 194.82 2.70 c p1
302.49 210.63 2.70 c p1
339.60 232.23 2.70 c p1
376.71 254.59 2.70 c p1
1 0 0 srgb
np
109.51 120.67 m
0 4.59 l
o
np
105.91 120.67 m
3.60 0 l
3.60 0 l
o
np
113.11 125.26 m
-3.60 0 l
-3.60 0 l
o
np
146.62 140.98 m
0 5.13 l
o
np
143.02 140.98 m
3.60 0 l
3.60 0 l
o
np
150.22 146.11 m
-3.60 0 l
-3.60 0 l
o
np
183.73 158.32 m
0 5.69 l
o
np
180.13 158.32 m
3.60 0 l
3.60 0 l
o
np
187.33 164.01 m
-3.60 0 l
-3.60 0 l
o
np
220.84 176.29 m
0 5.81 l
o
np
217.24 176.29 m
3.60 0 l
3.60 0 l
o
np
224.44 182.10 m
-3.60 0 l
-3.60 0 l
o
np
257.96 199.73 m
0 7.44 l
o
np
254.36 199.73 m
3.60 0 l
3.60 0 l
o
np
261.56 207.17 m
-3.60 0 l
-3.60 0 l
o
np
295.07 222.33 m
0 7.76 l
o
np
291.47 222.33 m
3.60 0 l
3.60 0 l
o
np
298.67 230.09 m
-3.60 0 l
-3.60 0 l
o
np
332.18 243.59 m
0 7.77 l
o
np
328.58 243.59 m
3.60 0 l
3.60 0 l
o
np
335.78 251.36 m
-3.60 0 l
-3.60 0 l
o
np
369.29 265.90 m
0 8.85 l
o
np
365.69 265.90 m
3.60 0 l
3.60 0 l
o
np
372.89 274.75 m
-3.60 0 l
-3.60 0 l
o
0 1 0 srgb
np
102.09 123.09 m
0 4.58 l
o
np
98.49 123.09 m
3.60 0 l
3.60 0 l
o
np
105.69 127.67 m
-3.60 0 l
-3.60 0 l
o
np
139.20 143.90 m
0 5.16 l
o
np
135.60 143.90 m
3.60 0 l
3.60 0 l
o
np
142.80 149.06 m
-3.60 0 l
-3.60 0 l
o
np
176.31 160.93 m
0 5.35 l
o
np
172.71 160.93 m
3.60 0 l
3.60 0 l
o
np
179.91 166.28 m
-3.60 0 l
-3.60 0 l
o
np
213.42 178.09 m
0 5.98 l
o
np
209.82 178.09 m
3.60 0 l
3.60 0 l
o
np
217.02 184.07 m
-3.60 0 l
-3.60 0 l
o
np
250.53 195.27 m
0 6.45 l
o
np
246.93 195.27 m
3.60 0 l
3.60 0 l
o
np
254.13 201.72 m
-3.60 0 l
-3.60 0 l
o
np
287.64 220.53 m
0 6.91 l
o
np
284.04 220.53 m
3.60 0 l
3.60 0 l
o
np
291.24 227.44 m
-3.60 0 l
-3.60 0 l
o
np
324.76 240.06 m
0 7.62 l
o
np
321.16 240.06 m
3.60 0 l
3.60 0 l
o
np
328.36 247.68 m
-3.60 0 l
-3.60 0 l
o
np
361.87 260.82 m
0 8.44 l
o
np
358.27 260.82 m
3.60 0 l
3.60 0 l
o
np
365.47 269.26 m
-3.60 0 l
-3.60 0 l
o
0 0 1 srgb
np
116.93 121.65 m
0 4.85 l
o
np
113.33 121.65 m
3.60 0 l
3.60 0 l
o
np
120.53 126.50 m
-3.60 0 l
-3.60 0 l
o
np
154.04 137.07 m
0 4.86 l
o
np
150.44 137.07 m
3.60 0 l
3.60 0 l
o
np
157.64 141.93 m
-3.60 0 l
-3.60 0 l
o
np
191.16 154.17 m
0 6.09 l
o
np
187.56 154.17 m
3.60 0 l
3.60 0 l
o
np
194.76 160.26 m
-3.60 0 l
-3.60 0 l
o
np
228.27 178.15 m
0 6.16 l
o
np
224.67 178.15 m
3.60 0 l
3.60 0 l
o
np
231.87 184.31 m
-3.60 0 l
-3.60 0 l
o
np
265.38 191.43 m
0 6.78 l
o
np
261.78 191.43 m
3.60 0 l
3.60 0 l
o
np
268.98 198.21 m
-3.60 0 l
-3.60 0 l
o
np
302.49 206.64 m
0 7.99 l
o
np
298.89 206.64 m
3.60 0 l
3.60 0 l
o
np
306.09 214.63 m
-3.60 0 l
-3.60 0 l
o
np
339.60 228.33 m
0 7.80 l
o
np
336.00 228.33 m
3.60 0 l
3.60 0 l
o
np
343.20 236.13 m
-3.60 0 l
-3.60 0 l
o
np
376.71 250.17 m
0 8.84 l
o
np
373.11 250.17 m
3.60 0 l
3.60 0 l
o
np
380.31 259.01 m
-3.60 0 l
-3.60 0 l
o
0 0 0 srgb
0.75 setlinewidth
[ 2.25 3.75] 0 setdash
np
0.00 52.20 m
450.00 196.49 l
o
/bg { 1 1 1 srgb } def
0.75 setlinewidth
[] 0 setdash
347.02 132.43 41.03 -53.72 r p3
1 0 0 srgb
357.21 119.00 2.70 c p1
0 1 0 srgb
357.21 105.57 2.70 c p1
0 0 1 srgb
357.21 92.14 2.70 c p1
/Font1 findfont 12 s
0 0 0 srgb
367.39 114.69 (RR) 0 0 t
367.39 101.26 (R) 0 ta
-0.600 (V) tb gr
367.39 87.83 (VV) 0 0 t
ep
%%Trailer
%%Pages: 1
%%EOF
