%!PS-Adobe-3.0 EPSF-3.0
%%DocumentNeededResources: font Helvetica
%%+ font Helvetica-Bold
%%+ font Helvetica-Oblique
%%+ font Helvetica-BoldOblique
%%+ font Symbol
%%Title: R Graphics Output
%%Creator: R Software
%%Pages: (atend)
%%BoundingBox: 0 0 638 525
%%EndComments
%%BeginProlog
/bp  { gs sRGB gs } def
% begin .ps.prolog
/gs  { gsave } bind def
/gr  { grestore } bind def
/ep  { showpage gr gr } bind def
/m   { moveto } bind def
/l  { rlineto } bind def
/np  { newpath } bind def
/cp  { closepath } bind def
/f   { fill } bind def
/o   { stroke } bind def
/c   { newpath 0 360 arc } bind def
/r   { 4 2 roll moveto 1 copy 3 -1 roll exch 0 exch rlineto 0 rlineto -1 mul 0 exch rlineto closepath } bind def
/p1  { stroke } bind def
/p2  { gsave bg fill grestore newpath } bind def
/p3  { gsave bg fill grestore stroke } bind def
/p6  { gsave bg eofill grestore newpath } bind def
/p7  { gsave bg eofill grestore stroke } bind def
/t   { 5 -2 roll moveto gsave rotate
       1 index stringwidth pop
       mul neg 0 rmoveto show grestore } bind def
/ta  { 4 -2 roll moveto gsave rotate show } bind def
/tb  { 2 -1 roll 0 rmoveto show } bind def
/cl  { grestore gsave newpath 3 index 3 index moveto 1 index
       4 -1 roll lineto  exch 1 index lineto lineto
       closepath clip newpath } bind def
/rgb { setrgbcolor } bind def
/s   { scalefont setfont } bind def
% end   .ps.prolog
/sRGB { [ /CIEBasedABC
          << /DecodeLMN
               [ { dup 0.03928 le
                        {12.92321 div}
                        {0.055 add 1.055 div 2.4 exp }
                     ifelse
                 } bind dup dup
               ]
             /MatrixLMN [0.412457 0.212673 0.019334
                         0.357576 0.715152 0.119192
                         0.180437 0.072175 0.950301]
             /WhitePoint [0.9505 1.0 1.0890]
           >>
         ] setcolorspace } bind def
/srgb { setcolor } bind def
% begin encoding
/WinAnsiEncoding [
 /.notdef /.notdef /.notdef /.notdef /.notdef /.notdef /.notdef /.notdef
 /.notdef /.notdef /.notdef /.notdef /.notdef /.notdef /.notdef /.notdef
 /.notdef /.notdef /.notdef /.notdef /.notdef /.notdef /.notdef /.notdef
 /.notdef /.notdef /.notdef /.notdef /.notdef /.notdef /.notdef /.notdef
 /space /exclam /quotedbl /numbersign /dollar /percent /ampersand /quoteright
 /parenleft /parenright /asterisk /plus /comma /minus /period /slash
 /zero /one /two /three /four /five /six /seven
 /eight /nine /colon /semicolon /less /equal /greater /question
 /at /A /B /C /D /E /F /G
 /H /I /J /K /L /M /N /O
 /P /Q /R /S /T /U /V /W
 /X /Y /Z /bracketleft /backslash /bracketright /asciicircum /underscore
 /grave /a /b /c /d /e /f /g
 /h /i /j /k /l /m /n /o
 /p /q /r /s /t /u /v /w
 /x /y /z /braceleft /bar /braceright /asciitilde /.notdef
 /Euro /.notdef /quotesinglbase /florin /quotedblbase /ellipsis /dagger /daggerdbl
 /circumflex /perthousand /Scaron /guilsinglleft /OE /.notdef /Zcaron /.notdef
 /.notdef /quoteleft /quoteright /quotedblleft /quotedblright /bullet /endash /emdash
 /tilde /trademark /scaron /guilsinglright /oe /.notdef /zcaron /Ydieresis
 /space /exclamdown /cent /sterling /currency /yen /brokenbar /section
 /dieresis /copyright /ordfeminine /guillemotleft /logicalnot /hyphen /registered /macron
 /degree /plusminus /twosuperior /threesuperior /acute /mu /paragraph /periodcentered
 /cedilla /onesuperior /ordmasculine /guillemotright /onequarter /onehalf /threequarters /questiondown
 /Agrave /Aacute /Acircumflex /Atilde /Adieresis /Aring /AE /Ccedilla
 /Egrave /Eacute /Ecircumflex /Edieresis /Igrave /Iacute /Icircumflex /Idieresis
 /Eth /Ntilde /Ograve /Oacute /Ocircumflex /Otilde /Odieresis /multiply
 /Oslash /Ugrave /Uacute /Ucircumflex /Udieresis /Yacute /Thorn /germandbls
 /agrave /aacute /acircumflex /atilde /adieresis /aring /ae /ccedilla
 /egrave /eacute /ecircumflex /edieresis /igrave /iacute /icircumflex /idieresis
 /eth /ntilde /ograve /oacute /ocircumflex /otilde /odieresis /divide
 /oslash /ugrave /uacute /ucircumflex /udieresis /yacute /thorn /ydieresis
]
 def
% end encoding
%%IncludeResource: font Helvetica
/Helvetica findfont
dup length dict begin
  {1 index /FID ne {def} {pop pop} ifelse} forall
  /Encoding WinAnsiEncoding def
  currentdict
  end
/Font1 exch definefont pop
%%IncludeResource: font Helvetica-Bold
/Helvetica-Bold findfont
dup length dict begin
  {1 index /FID ne {def} {pop pop} ifelse} forall
  /Encoding WinAnsiEncoding def
  currentdict
  end
/Font2 exch definefont pop
%%IncludeResource: font Helvetica-Oblique
/Helvetica-Oblique findfont
dup length dict begin
  {1 index /FID ne {def} {pop pop} ifelse} forall
  /Encoding WinAnsiEncoding def
  currentdict
  end
/Font3 exch definefont pop
%%IncludeResource: font Helvetica-BoldOblique
/Helvetica-BoldOblique findfont
dup length dict begin
  {1 index /FID ne {def} {pop pop} ifelse} forall
  /Encoding WinAnsiEncoding def
  currentdict
  end
/Font4 exch definefont pop
%%IncludeResource: font Symbol
/Symbol findfont
dup length dict begin
  {1 index /FID ne {def} {pop pop} ifelse} forall
  currentdict
  end
/Font5 exch definefont pop
%%EndProlog
0.00 0.00 637.50 525.00 cl
%%Page: 1 1
bp
/bg { 1 1 1 srgb } def
0.00 0.00 637.50 525.00 r p2
59.04 73.44 607.26 465.96 cl
1 0 0 srgb
0.75 setlinewidth
[] 0 setdash
1 setlinecap
1 setlinejoin
10.00 setmiterlimit
135.75 142.86 2.70 c p1
192.15 171.71 2.70 c p1
248.55 196.41 2.70 c p1
304.95 221.68 2.70 c p1
361.35 255.68 2.70 c p1
417.75 287.59 2.70 c p1
474.15 317.39 2.70 c p1
530.55 349.43 2.70 c p1
0.00 0.00 637.50 525.00 cl
0 0 0 srgb
0.75 setlinewidth
[] 0 setdash
1 setlinecap
1 setlinejoin
10.00 setmiterlimit
np
79.34 73.44 m
451.21 0 l
o
np
79.34 73.44 m
0 -7.20 l
o
np
192.15 73.44 m
0 -7.20 l
o
np
304.95 73.44 m
0 -7.20 l
o
np
417.75 73.44 m
0 -7.20 l
o
np
530.55 73.44 m
0 -7.20 l
o
/Font1 findfont 12 s
79.34 47.52 (20) .5 0 t
192.15 47.52 (30) .5 0 t
304.95 47.52 (40) .5 0 t
417.75 47.52 (50) .5 0 t
530.55 47.52 (60) .5 0 t
np
59.04 87.98 m
0 363.44 l
o
np
59.04 87.98 m
-7.20 0 l
o
np
59.04 178.84 m
-7.20 0 l
o
np
59.04 269.70 m
-7.20 0 l
o
np
59.04 360.56 m
-7.20 0 l
o
np
59.04 451.42 m
-7.20 0 l
o
41.76 87.98 (20) .5 90 t
41.76 178.84 (40) .5 90 t
41.76 269.70 (60) .5 90 t
41.76 360.56 (80) .5 90 t
41.76 451.42 (100) .5 90 t
np
59.04 73.44 m
548.22 0 l
0 392.52 l
-548.22 0 l
0 -392.52 l
o
0.00 0.00 637.50 525.00 cl
/Font2 findfont 14 s
0 0 0 srgb
333.15 490.45 ( ) .5 0 t
/Font1 findfont 12 s
333.15 18.72 (Real distance \(cm\)) .5 0 t
12.96 205.35 (P) 90 ta
-0.600 (erceiv) tb
-0.300 (ed distance \(cm\)) tb gr
59.04 73.44 607.26 465.96 cl
0 1 0 srgb
0.75 setlinewidth
[] 0 setdash
1 setlinecap
1 setlinejoin
10.00 setmiterlimit
124.47 146.25 2.70 c p1
180.87 175.82 2.70 c p1
237.27 199.83 2.70 c p1
293.67 224.33 2.70 c p1
350.07 248.73 2.70 c p1
406.47 284.47 2.70 c p1
462.87 312.34 2.70 c p1
519.27 342.02 2.70 c p1
0 0 1 srgb
147.03 144.42 2.70 c p1
203.43 166.04 2.70 c p1
259.83 190.87 2.70 c p1
316.23 224.54 2.70 c p1
372.63 243.59 2.70 c p1
429.03 265.75 2.70 c p1
485.43 296.02 2.70 c p1
541.83 327.37 2.70 c p1
1 0 0 srgb
np
135.75 139.64 m
0 6.44 l
o
np
132.15 139.64 m
3.60 0 l
3.60 0 l
o
np
139.35 146.08 m
-3.60 0 l
-3.60 0 l
o
np
192.15 168.11 m
0 7.20 l
o
np
188.55 168.11 m
3.60 0 l
3.60 0 l
o
np
195.75 175.31 m
-3.60 0 l
-3.60 0 l
o
np
248.55 192.42 m
0 7.98 l
o
np
244.95 192.42 m
3.60 0 l
3.60 0 l
o
np
252.15 200.40 m
-3.60 0 l
-3.60 0 l
o
np
304.95 217.61 m
0 8.14 l
o
np
301.35 217.61 m
3.60 0 l
3.60 0 l
o
np
308.55 225.75 m
-3.60 0 l
-3.60 0 l
o
np
361.35 250.46 m
0 10.44 l
o
np
357.75 250.46 m
3.60 0 l
3.60 0 l
o
np
364.95 260.90 m
-3.60 0 l
-3.60 0 l
o
np
417.75 282.15 m
0 10.88 l
o
np
414.15 282.15 m
3.60 0 l
3.60 0 l
o
np
421.35 293.03 m
-3.60 0 l
-3.60 0 l
o
np
474.15 311.94 m
0 10.90 l
o
np
470.55 311.94 m
3.60 0 l
3.60 0 l
o
np
477.75 322.84 m
-3.60 0 l
-3.60 0 l
o
np
530.55 343.22 m
0 12.41 l
o
np
526.95 343.22 m
3.60 0 l
3.60 0 l
o
np
534.15 355.63 m
-3.60 0 l
-3.60 0 l
o
0 1 0 srgb
np
124.47 143.04 m
0 6.41 l
o
np
120.87 143.04 m
3.60 0 l
3.60 0 l
o
np
128.07 149.45 m
-3.60 0 l
-3.60 0 l
o
np
180.87 172.20 m
0 7.24 l
o
np
177.27 172.20 m
3.60 0 l
3.60 0 l
o
np
184.47 179.44 m
-3.60 0 l
-3.60 0 l
o
np
237.27 196.08 m
0 7.50 l
o
np
233.67 196.08 m
3.60 0 l
3.60 0 l
o
np
240.87 203.58 m
-3.60 0 l
-3.60 0 l
o
np
293.67 220.13 m
0 8.39 l
o
np
290.07 220.13 m
3.60 0 l
3.60 0 l
o
np
297.27 228.52 m
-3.60 0 l
-3.60 0 l
o
np
350.07 244.21 m
0 9.05 l
o
np
346.47 244.21 m
3.60 0 l
3.60 0 l
o
np
353.67 253.26 m
-3.60 0 l
-3.60 0 l
o
np
406.47 279.63 m
0 9.68 l
o
np
402.87 279.63 m
3.60 0 l
3.60 0 l
o
np
410.07 289.31 m
-3.60 0 l
-3.60 0 l
o
np
462.87 307.01 m
0 10.67 l
o
np
459.27 307.01 m
3.60 0 l
3.60 0 l
o
np
466.47 317.68 m
-3.60 0 l
-3.60 0 l
o
np
519.27 336.11 m
0 11.82 l
o
np
515.67 336.11 m
3.60 0 l
3.60 0 l
o
np
522.87 347.93 m
-3.60 0 l
-3.60 0 l
o
0 0 1 srgb
np
147.03 141.02 m
0 6.80 l
o
np
143.43 141.02 m
3.60 0 l
3.60 0 l
o
np
150.63 147.82 m
-3.60 0 l
-3.60 0 l
o
np
203.43 162.64 m
0 6.81 l
o
np
199.83 162.64 m
3.60 0 l
3.60 0 l
o
np
207.03 169.45 m
-3.60 0 l
-3.60 0 l
o
np
259.83 186.60 m
0 8.54 l
o
np
256.23 186.60 m
3.60 0 l
3.60 0 l
o
np
263.43 195.14 m
-3.60 0 l
-3.60 0 l
o
np
316.23 220.22 m
0 8.63 l
o
np
312.63 220.22 m
3.60 0 l
3.60 0 l
o
np
319.83 228.85 m
-3.60 0 l
-3.60 0 l
o
np
372.63 238.84 m
0 9.50 l
o
np
369.03 238.84 m
3.60 0 l
3.60 0 l
o
np
376.23 248.34 m
-3.60 0 l
-3.60 0 l
o
np
429.03 260.15 m
0 11.20 l
o
np
425.43 260.15 m
3.60 0 l
3.60 0 l
o
np
432.63 271.35 m
-3.60 0 l
-3.60 0 l
o
np
485.43 290.55 m
0 10.94 l
o
np
481.83 290.55 m
3.60 0 l
3.60 0 l
o
np
489.03 301.49 m
-3.60 0 l
-3.60 0 l
o
np
541.83 321.17 m
0 12.40 l
o
np
538.23 321.17 m
3.60 0 l
3.60 0 l
o
np
545.43 333.57 m
-3.60 0 l
-3.60 0 l
o
0 0 0 srgb
0.75 setlinewidth
[ 2.25 3.75] 0 setdash
np
0.00 56.02 m
637.50 256.75 l
o
ep
%%Trailer
%%Pages: 1
%%EOF
