%!PS-Adobe-3.0 EPSF-3.0
%%Creator: cairo 1.15.10 (http://cairographics.org)
%%CreationDate: Wed Sep 05 22:55:30 2018
%%Pages: 1
%%DocumentData: Clean7Bit
%%LanguageLevel: 2
%%BoundingBox: 0 0 143 216
%%EndComments
%%BeginProlog
50 dict begin
/q { gsave } bind def
/Q { grestore } bind def
/cm { 6 array astore concat } bind def
/w { setlinewidth } bind def
/J { setlinecap } bind def
/j { setlinejoin } bind def
/M { setmiterlimit } bind def
/d { setdash } bind def
/m { moveto } bind def
/l { lineto } bind def
/c { curveto } bind def
/h { closepath } bind def
/re { exch dup neg 3 1 roll 5 3 roll moveto 0 rlineto
      0 exch rlineto 0 rlineto closepath } bind def
/S { stroke } bind def
/f { fill } bind def
/f* { eofill } bind def
/n { newpath } bind def
/W { clip } bind def
/W* { eoclip } bind def
/BT { } bind def
/ET { } bind def
/BDC { mark 3 1 roll /BDC pdfmark } bind def
/EMC { mark /EMC pdfmark } bind def
/cairo_store_point { /cairo_point_y exch def /cairo_point_x exch def } def
/Tj { show currentpoint cairo_store_point } bind def
/TJ {
  {
    dup
    type /stringtype eq
    { show } { -0.001 mul 0 cairo_font_matrix dtransform rmoveto } ifelse
  } forall
  currentpoint cairo_store_point
} bind def
/cairo_selectfont { cairo_font_matrix aload pop pop pop 0 0 6 array astore
    cairo_font exch selectfont cairo_point_x cairo_point_y moveto } bind def
/Tf { pop /cairo_font exch def /cairo_font_matrix where
      { pop cairo_selectfont } if } bind def
/Td { matrix translate cairo_font_matrix matrix concatmatrix dup
      /cairo_font_matrix exch def dup 4 get exch 5 get cairo_store_point
      /cairo_font where { pop cairo_selectfont } if } bind def
/Tm { 2 copy 8 2 roll 6 array astore /cairo_font_matrix exch def
      cairo_store_point /cairo_font where { pop cairo_selectfont } if } bind def
/g { setgray } bind def
/rg { setrgbcolor } bind def
/d1 { setcachedevice } bind def
/cairo_data_source {
  CairoDataIndex CairoData length lt
    { CairoData CairoDataIndex get /CairoDataIndex CairoDataIndex 1 add def }
    { () } ifelse
} def
/cairo_flush_ascii85_file { cairo_ascii85_file status { cairo_ascii85_file flushfile } if } def
/cairo_image { image cairo_flush_ascii85_file } def
/cairo_imagemask { imagemask cairo_flush_ascii85_file } def
%%EndProlog
%%BeginSetup
%%EndSetup
%%Page: 1 1
%%BeginPageSetup
%%PageBoundingBox: 0 0 143 216
%%EndPageSetup
q 0 0 143 216 rectclip
1 0 0 -1 0 216 cm q
1 g
73.363 191.629 m 61.16 212.762 36.441 221.328 18.148 210.77 c -0.145 200.207
 -5.082 174.516 7.117 153.383 c 19.32 132.25 44.039 123.68 62.332 134.242
 c 80.625 144.805 85.563 170.496 73.363 191.629 c h
73.363 191.629 m f
0 g
0.736463 w
0 J
0 j
[] 0.0 d
4 M q 1 0.57735 -0.57735 1 0 0 cm
138 111.954 m 137.999 133.088 123.169 150.217 104.877 150.219 c 86.584 
150.218 71.756 133.087 71.755 111.955 c 71.756 90.822 86.584 73.69 104.878
 73.691 c 123.171 73.692 137.999 90.822 138 111.954 c h
138 111.954 m S Q
1 g
30.168 117.73 m 91.742 153.285 l 78.609 176.031 l 17.035 140.48 l h
30.168 117.73 m f
0 g
0.90792 w
q 1 0.57735 -0.57735 1 0 0 cm
73.605 75.235 m 135.181 75.238 l 135.181 97.985 l 73.606 97.984 l h
73.605 75.235 m S Q
1 g
15.484 142.539 m 19.43 135.707 36.746 138.316 54.156 148.371 c 71.57 158.422
 82.488 172.113 78.543 178.945 c f
0 g
0.73623 w
q 1 0.57735 -0.57735 1 0 0 cm
73.335 100.199 m 73.335 93.367 87.452 87.826 104.864 87.828 c 122.276 87.826
 136.393 93.366 136.393 100.199 c S Q
1 g
52.094 152.137 m 48.863 157.789 l 52 152.105 l 46.34 148.875 l 52.027 152.012
 l 55.258 146.355 l 52.121 152.039 l 57.777 155.27 l h
52.094 152.137 m f
0 0 1 rg
0.947595 w
q 1 0.57735 -0.577227 0.999786 0 0 cm
104.947 91.565 m 104.972 97.204 l 104.864 91.582 l 99.22 91.61 l 104.844
 91.5 l 104.817 85.858 l 104.926 91.48 l 110.567 91.453 l h
104.947 91.565 m S Q
1 g
39.824 173.535 m 36.68 179.035 l 39.73 173.508 l 34.227 170.363 l 39.758
 173.414 l 42.902 167.914 l 39.852 173.441 l 45.355 176.586 l h
39.824 173.535 m f
1 0 0 rg
0.921917 w
q 1 0.57735 -0.577227 0.999786 0 0 cm
105.011 112.931 m 105.034 118.419 l 104.929 112.951 l 99.439 112.976 l 
104.909 112.869 l 104.886 107.381 l 104.991 112.849 l 110.481 112.824 l 
h
105.011 112.931 m S Q
0 g
0.75 w
[ 6 6] 7.5 d
q 1 0 0 1 0 0 cm
40.203 148.863 m 40.203 6.82 l S Q
0.772373 w
[ 6.178987 6.178987] 7.511811 d
q 1 0 0 1 0 0 cm
40.277 148.676 m 132.316 49.73 l S Q
47.16 7.086 m 47.16 10.836 44.121 13.875 40.375 13.875 c 36.625 13.875 
33.586 10.836 33.586 7.086 c 33.586 3.34 36.625 0.301 40.375 0.301 c 44.121
 0.301 47.16 3.34 47.16 7.086 c h
47.16 7.086 m f
0.598381 w
[] 0.0 d
q 1 0 0 1 0 0 cm
47.16 7.086 m 47.16 10.836 44.121 13.875 40.375 13.875 c 36.625 13.875 
33.586 10.836 33.586 7.086 c 33.586 3.34 36.625 0.301 40.375 0.301 c 44.121
 0.301 47.16 3.34 47.16 7.086 c h
47.16 7.086 m S Q
1 0 1 rg
0.751181 w
[ 1.502362 0.751181] 0 d
q 1 0 0 1 0 0 cm
135.117 47.098 m 52.027 152.012 l S Q
0 g
141.797 47.035 m 141.797 50.785 138.758 53.824 135.012 53.824 c 131.262
 53.824 128.223 50.785 128.223 47.035 c 128.223 43.289 131.262 40.25 135.012
 40.25 c 138.758 40.25 141.797 43.289 141.797 47.035 c h
141.797 47.035 m f
0.598381 w
[] 0.0 d
q 1 0 0 1 0 0 cm
141.797 47.035 m 141.797 50.785 138.758 53.824 135.012 53.824 c 131.262
 53.824 128.223 50.785 128.223 47.035 c 128.223 43.289 131.262 40.25 135.012
 40.25 c 138.758 40.25 141.797 43.289 141.797 47.035 c h
141.797 47.035 m S Q
Q Q
showpage
%%Trailer
end
%%EOF
