%!PS-Adobe-3.0 EPSF-3.0
%%Creator: cairo 1.15.10 (http://cairographics.org)
%%CreationDate: Wed Sep 05 22:53:53 2018
%%Pages: 1
%%DocumentData: Clean7Bit
%%LanguageLevel: 2
%%BoundingBox: 0 0 141 218
%%EndComments
%%BeginProlog
50 dict begin
/q { gsave } bind def
/Q { grestore } bind def
/cm { 6 array astore concat } bind def
/w { setlinewidth } bind def
/J { setlinecap } bind def
/j { setlinejoin } bind def
/M { setmiterlimit } bind def
/d { setdash } bind def
/m { moveto } bind def
/l { lineto } bind def
/c { curveto } bind def
/h { closepath } bind def
/re { exch dup neg 3 1 roll 5 3 roll moveto 0 rlineto
      0 exch rlineto 0 rlineto closepath } bind def
/S { stroke } bind def
/f { fill } bind def
/f* { eofill } bind def
/n { newpath } bind def
/W { clip } bind def
/W* { eoclip } bind def
/BT { } bind def
/ET { } bind def
/BDC { mark 3 1 roll /BDC pdfmark } bind def
/EMC { mark /EMC pdfmark } bind def
/cairo_store_point { /cairo_point_y exch def /cairo_point_x exch def } def
/Tj { show currentpoint cairo_store_point } bind def
/TJ {
  {
    dup
    type /stringtype eq
    { show } { -0.001 mul 0 cairo_font_matrix dtransform rmoveto } ifelse
  } forall
  currentpoint cairo_store_point
} bind def
/cairo_selectfont { cairo_font_matrix aload pop pop pop 0 0 6 array astore
    cairo_font exch selectfont cairo_point_x cairo_point_y moveto } bind def
/Tf { pop /cairo_font exch def /cairo_font_matrix where
      { pop cairo_selectfont } if } bind def
/Td { matrix translate cairo_font_matrix matrix concatmatrix dup
      /cairo_font_matrix exch def dup 4 get exch 5 get cairo_store_point
      /cairo_font where { pop cairo_selectfont } if } bind def
/Tm { 2 copy 8 2 roll 6 array astore /cairo_font_matrix exch def
      cairo_store_point /cairo_font where { pop cairo_selectfont } if } bind def
/g { setgray } bind def
/rg { setrgbcolor } bind def
/d1 { setcachedevice } bind def
/cairo_data_source {
  CairoDataIndex CairoData length lt
    { CairoData CairoDataIndex get /CairoDataIndex CairoDataIndex 1 add def }
    { () } ifelse
} def
/cairo_flush_ascii85_file { cairo_ascii85_file status { cairo_ascii85_file flushfile } if } def
/cairo_image { image cairo_flush_ascii85_file } def
/cairo_imagemask { imagemask cairo_flush_ascii85_file } def
%%EndProlog
%%BeginSetup
%%EndSetup
%%Page: 1 1
%%BeginPageSetup
%%PageBoundingBox: 0 0 141 218
%%EndPageSetup
q 0 0 141 218 rectclip
1 0 0 -1 0 218 cm q
1 g
76.914 172.504 m 76.914 196.906 59.793 216.688 38.672 216.688 c 17.547 
216.688 0.426 196.906 0.426 172.504 c 0.426 148.105 17.547 128.324 38.672
 128.324 c 59.793 128.324 76.914 148.105 76.914 172.504 c h
76.914 172.504 m f
0 g
0.850394 w
0 J
0 j
[] 0.0 d
4 M q 1 0 0 1 0 0 cm
76.914 172.504 m 76.914 196.906 59.793 216.688 38.672 216.688 c 17.547 
216.688 0.426 196.906 0.426 172.504 c 0.426 148.105 17.547 128.324 38.672
 128.324 c 59.793 128.324 76.914 148.105 76.914 172.504 c h
76.914 172.504 m S Q
1 g
3.012 129.977 71.121 25.516 re f
0 g
1.033434 w
q 1 0 0 1 0 0 cm
3.012 129.977 71.121 25.516 re S Q
1 g
2.25 158.93 m 2.25 151.039 18.551 144.645 38.656 144.645 c 58.762 144.645
 75.063 151.039 75.063 158.93 c f
0 g
0.850125 w
q 1 0 0 1 0 0 cm
2.25 158.93 m 2.25 151.039 18.551 144.645 38.656 144.645 c 58.762 144.645
 75.063 151.039 75.063 158.93 c S Q
1 g
38.75 148.938 m 38.781 155.449 l 38.652 148.961 l 32.141 148.992 l 38.633
 148.863 l 38.602 142.352 l 38.727 148.84 l 45.242 148.813 l h
38.75 148.938 m f
0 0 1 rg
1.094188 w
q 1 0 0 0.999786 0 0 cm
38.75 148.969 m 38.781 155.483 l 38.652 148.993 l 32.141 149.024 l 38.633
 148.895 l 38.602 142.382 l 38.727 148.872 l 45.242 148.844 l h
38.75 148.969 m S Q
1 g
38.824 173.605 m 38.852 179.941 l 38.73 173.629 l 32.391 173.656 l 38.707
 173.535 l 38.68 167.199 l 38.801 173.512 l 45.141 173.48 l h
38.824 173.605 m f
1 0 0 rg
1.064538 w
q 1 0 0 0.999786 0 0 cm
38.824 173.643 m 38.852 179.98 l 38.73 173.666 l 32.391 173.693 l 38.707
 173.572 l 38.68 167.235 l 38.801 173.549 l 45.141 173.518 l h
38.824 173.643 m S Q
0 g
0.75 w
[ 6 6] 7.5 d
q 1 0 0 1 0 0 cm
38.633 148.863 m 38.633 6.82 l S Q
0.772373 w
[ 6.178987 6.178987] 7.511811 d
q 1 0 0 1 0 0 cm
38.707 148.676 m 130.746 49.73 l S Q
45.59 7.086 m 45.59 10.836 42.551 13.875 38.805 13.875 c 35.055 13.875 
32.016 10.836 32.016 7.086 c 32.016 3.34 35.055 0.301 38.805 0.301 c 42.551
 0.301 45.59 3.34 45.59 7.086 c h
45.59 7.086 m f
0.598381 w
[] 0.0 d
q 1 0 0 1 0 0 cm
45.59 7.086 m 45.59 10.836 42.551 13.875 38.805 13.875 c 35.055 13.875 
32.016 10.836 32.016 7.086 c 32.016 3.34 35.055 0.301 38.805 0.301 c 42.551
 0.301 45.59 3.34 45.59 7.086 c h
45.59 7.086 m S Q
140.227 47.035 m 140.227 50.785 137.188 53.824 133.441 53.824 c 129.691
 53.824 126.652 50.785 126.652 47.035 c 126.652 43.289 129.691 40.25 133.441
 40.25 c 137.188 40.25 140.227 43.289 140.227 47.035 c h
140.227 47.035 m f
q 1 0 0 1 0 0 cm
140.227 47.035 m 140.227 50.785 137.188 53.824 133.441 53.824 c 129.691
 53.824 126.652 50.785 126.652 47.035 c 126.652 43.289 129.691 40.25 133.441
 40.25 c 137.188 40.25 140.227 43.289 140.227 47.035 c h
140.227 47.035 m S Q
Q Q
showpage
%%Trailer
end
%%EOF
