%!PS-Adobe-3.0 EPSF-3.0
%%DocumentNeededResources: font Helvetica
%%+ font Helvetica-Bold
%%+ font Helvetica-Oblique
%%+ font Helvetica-BoldOblique
%%+ font Symbol
%%Title: R Graphics Output
%%Creator: R Software
%%Pages: (atend)
%%BoundingBox: 0 0 450 375
%%EndComments
%%BeginProlog
/bp  { gs sRGB gs } def
% begin .ps.prolog
/gs  { gsave } bind def
/gr  { grestore } bind def
/ep  { showpage gr gr } bind def
/m   { moveto } bind def
/l  { rlineto } bind def
/np  { newpath } bind def
/cp  { closepath } bind def
/f   { fill } bind def
/o   { stroke } bind def
/c   { newpath 0 360 arc } bind def
/r   { 4 2 roll moveto 1 copy 3 -1 roll exch 0 exch rlineto 0 rlineto -1 mul 0 exch rlineto closepath } bind def
/p1  { stroke } bind def
/p2  { gsave bg fill grestore newpath } bind def
/p3  { gsave bg fill grestore stroke } bind def
/p6  { gsave bg eofill grestore newpath } bind def
/p7  { gsave bg eofill grestore stroke } bind def
/t   { 5 -2 roll moveto gsave rotate
       1 index stringwidth pop
       mul neg 0 rmoveto show grestore } bind def
/ta  { 4 -2 roll moveto gsave rotate show } bind def
/tb  { 2 -1 roll 0 rmoveto show } bind def
/cl  { grestore gsave newpath 3 index 3 index moveto 1 index
       4 -1 roll lineto  exch 1 index lineto lineto
       closepath clip newpath } bind def
/rgb { setrgbcolor } bind def
/s   { scalefont setfont } bind def
% end   .ps.prolog
/sRGB { [ /CIEBasedABC
          << /DecodeLMN
               [ { dup 0.03928 le
                        {12.92321 div}
                        {0.055 add 1.055 div 2.4 exp }
                     ifelse
                 } bind dup dup
               ]
             /MatrixLMN [0.412457 0.212673 0.019334
                         0.357576 0.715152 0.119192
                         0.180437 0.072175 0.950301]
             /WhitePoint [0.9505 1.0 1.0890]
           >>
         ] setcolorspace } bind def
/srgb { setcolor } bind def
% begin encoding
/WinAnsiEncoding [
 /.notdef /.notdef /.notdef /.notdef /.notdef /.notdef /.notdef /.notdef
 /.notdef /.notdef /.notdef /.notdef /.notdef /.notdef /.notdef /.notdef
 /.notdef /.notdef /.notdef /.notdef /.notdef /.notdef /.notdef /.notdef
 /.notdef /.notdef /.notdef /.notdef /.notdef /.notdef /.notdef /.notdef
 /space /exclam /quotedbl /numbersign /dollar /percent /ampersand /quoteright
 /parenleft /parenright /asterisk /plus /comma /minus /period /slash
 /zero /one /two /three /four /five /six /seven
 /eight /nine /colon /semicolon /less /equal /greater /question
 /at /A /B /C /D /E /F /G
 /H /I /J /K /L /M /N /O
 /P /Q /R /S /T /U /V /W
 /X /Y /Z /bracketleft /backslash /bracketright /asciicircum /underscore
 /grave /a /b /c /d /e /f /g
 /h /i /j /k /l /m /n /o
 /p /q /r /s /t /u /v /w
 /x /y /z /braceleft /bar /braceright /asciitilde /.notdef
 /Euro /.notdef /quotesinglbase /florin /quotedblbase /ellipsis /dagger /daggerdbl
 /circumflex /perthousand /Scaron /guilsinglleft /OE /.notdef /Zcaron /.notdef
 /.notdef /quoteleft /quoteright /quotedblleft /quotedblright /bullet /endash /emdash
 /tilde /trademark /scaron /guilsinglright /oe /.notdef /zcaron /Ydieresis
 /space /exclamdown /cent /sterling /currency /yen /brokenbar /section
 /dieresis /copyright /ordfeminine /guillemotleft /logicalnot /hyphen /registered /macron
 /degree /plusminus /twosuperior /threesuperior /acute /mu /paragraph /periodcentered
 /cedilla /onesuperior /ordmasculine /guillemotright /onequarter /onehalf /threequarters /questiondown
 /Agrave /Aacute /Acircumflex /Atilde /Adieresis /Aring /AE /Ccedilla
 /Egrave /Eacute /Ecircumflex /Edieresis /Igrave /Iacute /Icircumflex /Idieresis
 /Eth /Ntilde /Ograve /Oacute /Ocircumflex /Otilde /Odieresis /multiply
 /Oslash /Ugrave /Uacute /Ucircumflex /Udieresis /Yacute /Thorn /germandbls
 /agrave /aacute /acircumflex /atilde /adieresis /aring /ae /ccedilla
 /egrave /eacute /ecircumflex /edieresis /igrave /iacute /icircumflex /idieresis
 /eth /ntilde /ograve /oacute /ocircumflex /otilde /odieresis /divide
 /oslash /ugrave /uacute /ucircumflex /udieresis /yacute /thorn /ydieresis
]
 def
% end encoding
%%IncludeResource: font Helvetica
/Helvetica findfont
dup length dict begin
  {1 index /FID ne {def} {pop pop} ifelse} forall
  /Encoding WinAnsiEncoding def
  currentdict
  end
/Font1 exch definefont pop
%%IncludeResource: font Helvetica-Bold
/Helvetica-Bold findfont
dup length dict begin
  {1 index /FID ne {def} {pop pop} ifelse} forall
  /Encoding WinAnsiEncoding def
  currentdict
  end
/Font2 exch definefont pop
%%IncludeResource: font Helvetica-Oblique
/Helvetica-Oblique findfont
dup length dict begin
  {1 index /FID ne {def} {pop pop} ifelse} forall
  /Encoding WinAnsiEncoding def
  currentdict
  end
/Font3 exch definefont pop
%%IncludeResource: font Helvetica-BoldOblique
/Helvetica-BoldOblique findfont
dup length dict begin
  {1 index /FID ne {def} {pop pop} ifelse} forall
  /Encoding WinAnsiEncoding def
  currentdict
  end
/Font4 exch definefont pop
%%IncludeResource: font Symbol
/Symbol findfont
dup length dict begin
  {1 index /FID ne {def} {pop pop} ifelse} forall
  currentdict
  end
/Font5 exch definefont pop
%%EndProlog
%%Page: 1 1
bp
/bg { 1 1 1 srgb } def
0.00 0.00 450.00 375.00 r p2
59.04 73.44 419.76 315.96 cl
0 0 0 srgb
0.75 setlinewidth
[] 0 setdash
1 setlinecap
1 setlinejoin
10.00 setmiterlimit
139.20 89.55 2.70 c p1
189.30 96.68 2.70 c p1
239.40 139.45 2.70 c p1
289.50 207.18 2.70 c p1
339.60 267.77 2.70 c p1
0.00 0.00 450.00 375.00 cl
0 0 0 srgb
0.75 setlinewidth
[] 0 setdash
1 setlinecap
1 setlinejoin
10.00 setmiterlimit
np
105.80 73.44 m
267.20 0 l
o
np
105.80 73.44 m
0 -7.20 l
o
np
172.60 73.44 m
0 -7.20 l
o
np
239.40 73.44 m
0 -7.20 l
o
np
306.20 73.44 m
0 -7.20 l
o
np
373.00 73.44 m
0 -7.20 l
o
/Font1 findfont 12 s
105.80 47.52 (-0.4) .5 0 t
172.60 47.52 (-0.2) .5 0 t
239.40 47.52 (0.0) .5 0 t
306.20 47.52 (0.2) .5 0 t
373.00 47.52 (0.4) .5 0 t
np
59.04 82.42 m
0 224.56 l
o
np
59.04 82.42 m
-7.20 0 l
o
np
59.04 127.33 m
-7.20 0 l
o
np
59.04 172.24 m
-7.20 0 l
o
np
59.04 217.16 m
-7.20 0 l
o
np
59.04 262.07 m
-7.20 0 l
o
np
59.04 306.98 m
-7.20 0 l
o
41.76 82.42 (0) .5 90 t
41.76 127.33 (20) .5 90 t
41.76 172.24 (40) .5 90 t
41.76 217.16 (60) .5 90 t
41.76 262.07 (80) .5 90 t
41.76 306.98 (100) .5 90 t
np
59.04 73.44 m
360.72 0 l
0 242.52 l
-360.72 0 l
0 -242.52 l
o
0.00 0.00 450.00 375.00 cl
/Font2 findfont 14 s
0 0 0 srgb
239.40 340.45 (Comparison Left/Center) .5 0 t
/Font1 findfont 12 s
182.06 18.72 (Relativ) 0 ta
-0.300 (e Distance \(m\)) tb gr
12.96 110.68 (Ref) 90 ta
-0.360 (erence perceiv) tb
-0.300 (ed closer \(%\)) tb gr
59.04 73.44 419.76 315.96 cl
0 0 0 srgb
0.75 setlinewidth
[] 0 setdash
1 setlinecap
1 setlinejoin
10.00 setmiterlimit
139.20 123.41 2.70 c p1
189.30 175.10 2.70 c p1
239.40 248.17 2.70 c p1
289.50 289.16 2.70 c p1
339.60 299.85 2.70 c p1
1 0 0 srgb
np
72.40 83.26 m
3.37 0.08 l
3.38 0.09 l
3.37 0.09 l
3.37 0.10 l
3.38 0.12 l
3.37 0.12 l
3.38 0.13 l
3.37 0.15 l
3.37 0.16 l
3.38 0.18 l
3.37 0.19 l
3.37 0.21 l
3.38 0.23 l
3.37 0.25 l
3.38 0.28 l
3.37 0.30 l
3.37 0.32 l
3.38 0.36 l
3.37 0.39 l
3.37 0.42 l
3.38 0.46 l
3.37 0.51 l
3.38 0.54 l
3.37 0.60 l
3.37 0.65 l
3.38 0.71 l
3.37 0.77 l
3.37 0.83 l
3.38 0.91 l
3.37 0.98 l
3.38 1.07 l
3.37 1.15 l
3.37 1.25 l
3.38 1.35 l
3.37 1.46 l
3.37 1.57 l
3.38 1.69 l
3.37 1.83 l
3.38 1.95 l
3.37 2.10 l
3.37 2.25 l
3.38 2.40 l
3.37 2.56 l
3.37 2.73 l
3.38 2.90 l
3.37 3.07 l
3.38 3.24 l
3.37 3.42 l
3.37 3.60 l
3.38 3.77 l
3.37 3.94 l
3.37 4.10 l
3.38 4.27 l
3.37 4.41 l
3.38 4.55 l
3.37 4.67 l
3.37 4.79 l
3.38 4.88 l
3.37 4.95 l
3.37 5.02 l
3.38 5.05 l
3.37 5.07 l
3.38 5.06 l
3.37 5.04 l
3.37 5.00 l
3.38 4.94 l
3.37 4.85 l
3.37 4.75 l
3.38 4.64 l
3.37 4.51 l
3.38 4.37 l
3.37 4.22 l
3.37 4.06 l
3.38 3.89 l
3.37 3.72 l
3.37 3.54 l
3.38 3.37 l
3.37 3.19 l
3.38 3.02 l
3.37 2.85 l
3.37 2.68 l
3.38 2.51 l
3.37 2.36 l
3.37 2.20 l
3.38 2.06 l
3.37 1.91 l
3.38 1.79 l
3.37 1.65 l
3.37 1.54 l
3.38 1.43 l
3.37 1.32 l
3.37 1.22 l
3.38 1.13 l
3.37 1.04 l
3.38 0.96 l
3.37 0.88 l
3.37 0.82 l
3.38 0.75 l
3.37 0.69 l
o
0 0 1 srgb
np
72.40 90.09 m
3.37 0.67 l
3.38 0.74 l
3.37 0.80 l
3.37 0.87 l
3.38 0.93 l
3.37 1.02 l
3.38 1.09 l
3.37 1.19 l
3.37 1.27 l
3.38 1.38 l
3.37 1.49 l
3.37 1.59 l
3.38 1.72 l
3.37 1.84 l
3.38 1.97 l
3.37 2.11 l
3.37 2.25 l
3.38 2.40 l
3.37 2.56 l
3.37 2.71 l
3.38 2.88 l
3.37 3.04 l
3.38 3.21 l
3.37 3.37 l
3.37 3.54 l
3.38 3.71 l
3.37 3.86 l
3.37 4.03 l
3.38 4.17 l
3.37 4.31 l
3.38 4.44 l
3.37 4.56 l
3.37 4.66 l
3.38 4.76 l
3.37 4.82 l
3.37 4.89 l
3.38 4.91 l
3.37 4.94 l
3.38 4.94 l
3.37 4.92 l
3.37 4.88 l
3.38 4.82 l
3.37 4.75 l
3.37 4.66 l
3.38 4.56 l
3.37 4.43 l
3.38 4.31 l
3.37 4.17 l
3.37 4.01 l
3.38 3.86 l
3.37 3.70 l
3.37 3.54 l
3.38 3.37 l
3.37 3.20 l
3.38 3.03 l
3.37 2.87 l
3.37 2.71 l
3.38 2.55 l
3.37 2.40 l
3.37 2.24 l
3.38 2.11 l
3.37 1.96 l
3.38 1.84 l
3.37 1.71 l
3.37 1.59 l
3.38 1.48 l
3.37 1.38 l
3.37 1.27 l
3.38 1.18 l
3.37 1.09 l
3.38 1.01 l
3.37 0.94 l
3.37 0.86 l
3.38 0.80 l
3.37 0.73 l
3.37 0.68 l
3.38 0.62 l
3.37 0.58 l
3.38 0.52 l
3.37 0.49 l
3.37 0.45 l
3.38 0.41 l
3.37 0.38 l
3.37 0.34 l
3.38 0.32 l
3.37 0.29 l
3.38 0.27 l
3.37 0.25 l
3.37 0.23 l
3.38 0.20 l
3.37 0.20 l
3.37 0.17 l
3.38 0.16 l
3.37 0.15 l
3.38 0.13 l
3.37 0.13 l
3.37 0.11 l
3.38 0.10 l
3.37 0.10 l
o
0 0 0 srgb
np
139.20 85.24 m
0 8.62 l
o
np
135.60 85.24 m
3.60 0 l
3.60 0 l
o
np
142.80 93.86 m
-3.60 0 l
-3.60 0 l
o
np
189.30 90.68 m
0 12.00 l
o
np
185.70 90.68 m
3.60 0 l
3.60 0 l
o
np
192.90 102.68 m
-3.60 0 l
-3.60 0 l
o
np
239.40 128.74 m
0 21.42 l
o
np
235.80 128.74 m
3.60 0 l
3.60 0 l
o
np
243.00 150.16 m
-3.60 0 l
-3.60 0 l
o
np
289.50 194.95 m
0 24.45 l
o
np
285.90 194.95 m
3.60 0 l
3.60 0 l
o
np
293.10 219.40 m
-3.60 0 l
-3.60 0 l
o
np
339.60 258.43 m
0 18.68 l
o
np
336.00 258.43 m
3.60 0 l
3.60 0 l
o
np
343.20 277.11 m
-3.60 0 l
-3.60 0 l
o
np
139.20 113.91 m
0 19.00 l
o
np
135.60 113.91 m
3.60 0 l
3.60 0 l
o
np
142.80 132.91 m
-3.60 0 l
-3.60 0 l
o
np
189.30 162.99 m
0 24.22 l
o
np
185.70 162.99 m
3.60 0 l
3.60 0 l
o
np
192.90 187.21 m
-3.60 0 l
-3.60 0 l
o
np
239.40 237.35 m
0 21.63 l
o
np
235.80 237.35 m
3.60 0 l
3.60 0 l
o
np
243.00 258.98 m
-3.60 0 l
-3.60 0 l
o
np
289.50 282.51 m
0 13.29 l
o
np
285.90 282.51 m
3.60 0 l
3.60 0 l
o
np
293.10 295.80 m
-3.60 0 l
-3.60 0 l
o
np
339.60 295.54 m
0 8.62 l
o
np
336.00 295.54 m
3.60 0 l
3.60 0 l
o
np
343.20 304.16 m
-3.60 0 l
-3.60 0 l
o
/bg { 1 1 1 srgb } def
306.20 127.33 108.31 -45.60 r p3
0 0 1 srgb
1.88 setlinewidth
[] 0 setdash
np
318.90 112.13 m
25.40 0 l
o
1 0 0 srgb
np
318.90 96.94 m
25.40 0 l
o
/Font1 findfont 12 s
0 0 0 srgb
357.01 107.83 (Front ref) 0 0 t
357.01 92.63 (Side ref) 0 0 t
1 0 0 srgb
0.75 setlinewidth
[ 0.00 3.00] 0 setdash
np
281.08 59.97 m
0 134.73 l
-41.68 0 l
o
0 0 1 srgb
np
200.54 59.97 m
0 134.73 l
38.86 0 l
o
0 0 0 srgb
0.75 setlinewidth
[ 2.25 3.75] 0 setdash
np
239.40 73.44 m
0 242.52 l
o
0.00 0.00 450.00 375.00 cl
/Font1 findfont 12 s
1 0 0 srgb
281.08 57.60 (PSE) .5 0 t
281.08 43.20 ( 0.12) .5 0 t
0 0 1 srgb
200.54 57.60 (PSE) .5 0 t
200.54 43.20 ( -0.12) .5 0 t
ep
%%Trailer
%%Pages: 1
%%EOF
