%!PS-Adobe-3.0 EPSF-3.0
%%DocumentNeededResources: font Helvetica
%%+ font Helvetica-Bold
%%+ font Helvetica-Oblique
%%+ font Helvetica-BoldOblique
%%+ font Symbol
%%Title: R Graphics Output
%%Creator: R Software
%%Pages: (atend)
%%BoundingBox: 0 0 450 375
%%EndComments
%%BeginProlog
/bp  { gs sRGB gs } def
% begin .ps.prolog
/gs  { gsave } bind def
/gr  { grestore } bind def
/ep  { showpage gr gr } bind def
/m   { moveto } bind def
/l  { rlineto } bind def
/np  { newpath } bind def
/cp  { closepath } bind def
/f   { fill } bind def
/o   { stroke } bind def
/c   { newpath 0 360 arc } bind def
/r   { 4 2 roll moveto 1 copy 3 -1 roll exch 0 exch rlineto 0 rlineto -1 mul 0 exch rlineto closepath } bind def
/p1  { stroke } bind def
/p2  { gsave bg fill grestore newpath } bind def
/p3  { gsave bg fill grestore stroke } bind def
/p6  { gsave bg eofill grestore newpath } bind def
/p7  { gsave bg eofill grestore stroke } bind def
/t   { 5 -2 roll moveto gsave rotate
       1 index stringwidth pop
       mul neg 0 rmoveto show grestore } bind def
/ta  { 4 -2 roll moveto gsave rotate show } bind def
/tb  { 2 -1 roll 0 rmoveto show } bind def
/cl  { grestore gsave newpath 3 index 3 index moveto 1 index
       4 -1 roll lineto  exch 1 index lineto lineto
       closepath clip newpath } bind def
/rgb { setrgbcolor } bind def
/s   { scalefont setfont } bind def
% end   .ps.prolog
/sRGB { [ /CIEBasedABC
          << /DecodeLMN
               [ { dup 0.03928 le
                        {12.92321 div}
                        {0.055 add 1.055 div 2.4 exp }
                     ifelse
                 } bind dup dup
               ]
             /MatrixLMN [0.412457 0.212673 0.019334
                         0.357576 0.715152 0.119192
                         0.180437 0.072175 0.950301]
             /WhitePoint [0.9505 1.0 1.0890]
           >>
         ] setcolorspace } bind def
/srgb { setcolor } bind def
% begin encoding
/WinAnsiEncoding [
 /.notdef /.notdef /.notdef /.notdef /.notdef /.notdef /.notdef /.notdef
 /.notdef /.notdef /.notdef /.notdef /.notdef /.notdef /.notdef /.notdef
 /.notdef /.notdef /.notdef /.notdef /.notdef /.notdef /.notdef /.notdef
 /.notdef /.notdef /.notdef /.notdef /.notdef /.notdef /.notdef /.notdef
 /space /exclam /quotedbl /numbersign /dollar /percent /ampersand /quoteright
 /parenleft /parenright /asterisk /plus /comma /minus /period /slash
 /zero /one /two /three /four /five /six /seven
 /eight /nine /colon /semicolon /less /equal /greater /question
 /at /A /B /C /D /E /F /G
 /H /I /J /K /L /M /N /O
 /P /Q /R /S /T /U /V /W
 /X /Y /Z /bracketleft /backslash /bracketright /asciicircum /underscore
 /grave /a /b /c /d /e /f /g
 /h /i /j /k /l /m /n /o
 /p /q /r /s /t /u /v /w
 /x /y /z /braceleft /bar /braceright /asciitilde /.notdef
 /Euro /.notdef /quotesinglbase /florin /quotedblbase /ellipsis /dagger /daggerdbl
 /circumflex /perthousand /Scaron /guilsinglleft /OE /.notdef /Zcaron /.notdef
 /.notdef /quoteleft /quoteright /quotedblleft /quotedblright /bullet /endash /emdash
 /tilde /trademark /scaron /guilsinglright /oe /.notdef /zcaron /Ydieresis
 /space /exclamdown /cent /sterling /currency /yen /brokenbar /section
 /dieresis /copyright /ordfeminine /guillemotleft /logicalnot /hyphen /registered /macron
 /degree /plusminus /twosuperior /threesuperior /acute /mu /paragraph /periodcentered
 /cedilla /onesuperior /ordmasculine /guillemotright /onequarter /onehalf /threequarters /questiondown
 /Agrave /Aacute /Acircumflex /Atilde /Adieresis /Aring /AE /Ccedilla
 /Egrave /Eacute /Ecircumflex /Edieresis /Igrave /Iacute /Icircumflex /Idieresis
 /Eth /Ntilde /Ograve /Oacute /Ocircumflex /Otilde /Odieresis /multiply
 /Oslash /Ugrave /Uacute /Ucircumflex /Udieresis /Yacute /Thorn /germandbls
 /agrave /aacute /acircumflex /atilde /adieresis /aring /ae /ccedilla
 /egrave /eacute /ecircumflex /edieresis /igrave /iacute /icircumflex /idieresis
 /eth /ntilde /ograve /oacute /ocircumflex /otilde /odieresis /divide
 /oslash /ugrave /uacute /ucircumflex /udieresis /yacute /thorn /ydieresis
]
 def
% end encoding
%%IncludeResource: font Helvetica
/Helvetica findfont
dup length dict begin
  {1 index /FID ne {def} {pop pop} ifelse} forall
  /Encoding WinAnsiEncoding def
  currentdict
  end
/Font1 exch definefont pop
%%IncludeResource: font Helvetica-Bold
/Helvetica-Bold findfont
dup length dict begin
  {1 index /FID ne {def} {pop pop} ifelse} forall
  /Encoding WinAnsiEncoding def
  currentdict
  end
/Font2 exch definefont pop
%%IncludeResource: font Helvetica-Oblique
/Helvetica-Oblique findfont
dup length dict begin
  {1 index /FID ne {def} {pop pop} ifelse} forall
  /Encoding WinAnsiEncoding def
  currentdict
  end
/Font3 exch definefont pop
%%IncludeResource: font Helvetica-BoldOblique
/Helvetica-BoldOblique findfont
dup length dict begin
  {1 index /FID ne {def} {pop pop} ifelse} forall
  /Encoding WinAnsiEncoding def
  currentdict
  end
/Font4 exch definefont pop
%%IncludeResource: font Symbol
/Symbol findfont
dup length dict begin
  {1 index /FID ne {def} {pop pop} ifelse} forall
  currentdict
  end
/Font5 exch definefont pop
%%EndProlog
%%Page: 1 1
bp
/bg { 1 1 1 srgb } def
0.00 0.00 450.00 375.00 r p2
59.04 73.44 419.76 315.96 cl
0 0 0 srgb
0.75 setlinewidth
[] 0 setdash
1 setlinecap
1 setlinejoin
10.00 setmiterlimit
139.20 89.91 2.70 c p1
189.30 114.86 2.70 c p1
239.40 156.03 2.70 c p1
289.50 224.64 2.70 c p1
339.60 272.05 2.70 c p1
0.00 0.00 450.00 375.00 cl
0 0 0 srgb
0.75 setlinewidth
[] 0 setdash
1 setlinecap
1 setlinejoin
10.00 setmiterlimit
np
105.80 73.44 m
267.20 0 l
o
np
105.80 73.44 m
0 -7.20 l
o
np
172.60 73.44 m
0 -7.20 l
o
np
239.40 73.44 m
0 -7.20 l
o
np
306.20 73.44 m
0 -7.20 l
o
np
373.00 73.44 m
0 -7.20 l
o
/Font1 findfont 12 s
105.80 47.52 (-0.4) .5 0 t
172.60 47.52 (-0.2) .5 0 t
239.40 47.52 (0.0) .5 0 t
306.20 47.52 (0.2) .5 0 t
373.00 47.52 (0.4) .5 0 t
np
59.04 82.42 m
0 224.56 l
o
np
59.04 82.42 m
-7.20 0 l
o
np
59.04 127.33 m
-7.20 0 l
o
np
59.04 172.24 m
-7.20 0 l
o
np
59.04 217.16 m
-7.20 0 l
o
np
59.04 262.07 m
-7.20 0 l
o
np
59.04 306.98 m
-7.20 0 l
o
41.76 82.42 (0) .5 90 t
41.76 127.33 (20) .5 90 t
41.76 172.24 (40) .5 90 t
41.76 217.16 (60) .5 90 t
41.76 262.07 (80) .5 90 t
41.76 306.98 (100) .5 90 t
np
59.04 73.44 m
360.72 0 l
0 242.52 l
-360.72 0 l
0 -242.52 l
o
0.00 0.00 450.00 375.00 cl
/Font2 findfont 14 s
0 0 0 srgb
239.40 340.45 (Comparison Side/Center) .5 0 t
/Font1 findfont 12 s
182.06 18.72 (Relativ) 0 ta
-0.300 (e Distance \(m\)) tb gr
12.96 110.68 (Ref) 90 ta
-0.360 (erence perceiv) tb
-0.300 (ed closer \(%\)) tb gr
59.04 73.44 419.76 315.96 cl
0 0 0 srgb
0.75 setlinewidth
[] 0 setdash
1 setlinecap
1 setlinejoin
10.00 setmiterlimit
139.20 108.62 2.70 c p1
189.30 152.28 2.70 c p1
239.40 250.84 2.70 c p1
289.50 279.53 2.70 c p1
339.60 298.24 2.70 c p1
1 0 0 srgb
np
72.40 84.49 m
3.37 0.17 l
3.38 0.19 l
3.37 0.20 l
3.37 0.22 l
3.38 0.23 l
3.37 0.26 l
3.38 0.27 l
3.37 0.30 l
3.37 0.32 l
3.38 0.35 l
3.37 0.38 l
3.37 0.41 l
3.38 0.44 l
3.37 0.47 l
3.38 0.51 l
3.37 0.56 l
3.37 0.59 l
3.38 0.65 l
3.37 0.69 l
3.37 0.75 l
3.38 0.80 l
3.37 0.86 l
3.38 0.93 l
3.37 1.00 l
3.37 1.07 l
3.38 1.15 l
3.37 1.23 l
3.37 1.32 l
3.38 1.41 l
3.37 1.51 l
3.38 1.61 l
3.37 1.71 l
3.37 1.83 l
3.38 1.95 l
3.37 2.06 l
3.37 2.19 l
3.38 2.33 l
3.37 2.45 l
3.38 2.59 l
3.37 2.73 l
3.37 2.86 l
3.38 3.01 l
3.37 3.15 l
3.37 3.29 l
3.38 3.42 l
3.37 3.57 l
3.38 3.69 l
3.37 3.82 l
3.37 3.94 l
3.38 4.05 l
3.37 4.15 l
3.37 4.24 l
3.38 4.33 l
3.37 4.39 l
3.38 4.45 l
3.37 4.50 l
3.37 4.52 l
3.38 4.53 l
3.37 4.54 l
3.37 4.51 l
3.38 4.49 l
3.37 4.44 l
3.38 4.38 l
3.37 4.32 l
3.37 4.23 l
3.38 4.13 l
3.37 4.03 l
3.37 3.92 l
3.38 3.80 l
3.37 3.67 l
3.38 3.54 l
3.37 3.40 l
3.37 3.27 l
3.38 3.12 l
3.37 2.98 l
3.37 2.85 l
3.38 2.70 l
3.37 2.57 l
3.38 2.43 l
3.37 2.29 l
3.37 2.17 l
3.38 2.05 l
3.37 1.92 l
3.37 1.81 l
3.38 1.70 l
3.37 1.59 l
3.38 1.49 l
3.37 1.40 l
3.37 1.30 l
3.38 1.22 l
3.37 1.13 l
3.37 1.06 l
3.38 0.99 l
3.37 0.91 l
3.38 0.85 l
3.37 0.80 l
3.37 0.73 l
3.38 0.69 l
3.37 0.63 l
o
0 0 1 srgb
np
72.40 85.57 m
3.37 0.34 l
3.38 0.37 l
3.37 0.42 l
3.37 0.45 l
3.38 0.51 l
3.37 0.56 l
3.38 0.61 l
3.37 0.68 l
3.37 0.75 l
3.38 0.83 l
3.37 0.90 l
3.37 1.00 l
3.38 1.10 l
3.37 1.20 l
3.38 1.32 l
3.37 1.44 l
3.37 1.58 l
3.38 1.72 l
3.37 1.88 l
3.37 2.05 l
3.38 2.22 l
3.37 2.40 l
3.38 2.61 l
3.37 2.81 l
3.37 3.02 l
3.38 3.24 l
3.37 3.47 l
3.37 3.70 l
3.38 3.94 l
3.37 4.16 l
3.38 4.40 l
3.37 4.61 l
3.37 4.83 l
3.38 5.03 l
3.37 5.22 l
3.37 5.38 l
3.38 5.52 l
3.37 5.64 l
3.38 5.73 l
3.37 5.79 l
3.37 5.82 l
3.38 5.82 l
3.37 5.79 l
3.37 5.73 l
3.38 5.64 l
3.37 5.51 l
3.38 5.38 l
3.37 5.20 l
3.37 5.03 l
3.38 4.82 l
3.37 4.60 l
3.37 4.39 l
3.38 4.15 l
3.37 3.93 l
3.38 3.69 l
3.37 3.46 l
3.37 3.23 l
3.38 3.02 l
3.37 2.80 l
3.37 2.59 l
3.38 2.40 l
3.37 2.21 l
3.38 2.04 l
3.37 1.87 l
3.37 1.72 l
3.38 1.57 l
3.37 1.44 l
3.37 1.31 l
3.38 1.20 l
3.37 1.09 l
3.38 1.00 l
3.37 0.90 l
3.37 0.82 l
3.38 0.75 l
3.37 0.67 l
3.37 0.62 l
3.38 0.55 l
3.37 0.51 l
3.38 0.45 l
3.37 0.41 l
3.37 0.38 l
3.38 0.33 l
3.37 0.31 l
3.37 0.27 l
3.38 0.25 l
3.37 0.23 l
3.38 0.20 l
3.37 0.19 l
3.37 0.16 l
3.38 0.15 l
3.37 0.14 l
3.37 0.12 l
3.38 0.11 l
3.37 0.10 l
3.38 0.09 l
3.37 0.08 l
3.37 0.07 l
3.38 0.07 l
3.37 0.05 l
o
0 0 0 srgb
np
139.20 84.69 m
0 10.44 l
o
np
135.60 84.69 m
3.60 0 l
3.60 0 l
o
np
142.80 95.13 m
-3.60 0 l
-3.60 0 l
o
np
189.30 104.64 m
0 20.44 l
o
np
185.70 104.64 m
3.60 0 l
3.60 0 l
o
np
192.90 125.08 m
-3.60 0 l
-3.60 0 l
o
np
239.40 142.38 m
0 27.29 l
o
np
235.80 142.38 m
3.60 0 l
3.60 0 l
o
np
243.00 169.67 m
-3.60 0 l
-3.60 0 l
o
np
289.50 210.63 m
0 28.02 l
o
np
285.90 210.63 m
3.60 0 l
3.60 0 l
o
np
293.10 238.65 m
-3.60 0 l
-3.60 0 l
o
np
339.60 261.51 m
0 21.07 l
o
np
336.00 261.51 m
3.60 0 l
3.60 0 l
o
np
343.20 282.58 m
-3.60 0 l
-3.60 0 l
o
np
139.20 99.29 m
0 18.66 l
o
np
135.60 99.29 m
3.60 0 l
3.60 0 l
o
np
142.80 117.95 m
-3.60 0 l
-3.60 0 l
o
np
189.30 138.83 m
0 26.91 l
o
np
185.70 138.83 m
3.60 0 l
3.60 0 l
o
np
192.90 165.74 m
-3.60 0 l
-3.60 0 l
o
np
239.40 238.25 m
0 25.18 l
o
np
235.80 238.25 m
3.60 0 l
3.60 0 l
o
np
243.00 263.43 m
-3.60 0 l
-3.60 0 l
o
np
289.50 270.01 m
0 19.04 l
o
np
285.90 270.01 m
3.60 0 l
3.60 0 l
o
np
293.10 289.05 m
-3.60 0 l
-3.60 0 l
o
np
339.60 292.62 m
0 11.25 l
o
np
336.00 292.62 m
3.60 0 l
3.60 0 l
o
np
343.20 303.87 m
-3.60 0 l
-3.60 0 l
o
/bg { 1 1 1 srgb } def
306.20 127.33 96.51 -31.58 r p3
0 0 1 srgb
1.88 setlinewidth
[] 0 setdash
np
317.52 116.81 m
22.63 0 l
o
1 0 0 srgb
np
317.52 106.28 m
22.63 0 l
o
/Font1 findfont 12 s
0 0 0 srgb
351.47 112.50 (Front ref) 0 0 t
351.47 101.97 (Side ref) 0 0 t
1 0 0 srgb
0.75 setlinewidth
[ 0.00 3.00] 0 setdash
np
267.78 59.97 m
0 134.73 l
-28.38 0 l
o
0 0 1 srgb
np
210.65 59.97 m
0 134.73 l
28.75 0 l
o
0 0 0 srgb
0.75 setlinewidth
[ 2.25 3.75] 0 setdash
np
239.40 73.44 m
0 242.52 l
o
0.00 0.00 450.00 375.00 cl
/Font1 findfont 12 s
1 0 0 srgb
267.78 57.60 (PSE) .5 0 t
267.78 43.20 ( 0.08) .5 0 t
0 0 1 srgb
210.65 57.60 (PSE) .5 0 t
210.65 43.20 ( -0.09) .5 0 t
ep
%%Trailer
%%Pages: 1
%%EOF
