%!PS-Adobe-3.0 EPSF-3.0
%%DocumentNeededResources: font Helvetica
%%+ font Helvetica-Bold
%%+ font Helvetica-Oblique
%%+ font Helvetica-BoldOblique
%%+ font Symbol
%%Title: R Graphics Output
%%Creator: R Software
%%Pages: (atend)
%%BoundingBox: 0 0 450 375
%%EndComments
%%BeginProlog
/bp  { gs sRGB gs } def
% begin .ps.prolog
/gs  { gsave } bind def
/gr  { grestore } bind def
/ep  { showpage gr gr } bind def
/m   { moveto } bind def
/l  { rlineto } bind def
/np  { newpath } bind def
/cp  { closepath } bind def
/f   { fill } bind def
/o   { stroke } bind def
/c   { newpath 0 360 arc } bind def
/r   { 4 2 roll moveto 1 copy 3 -1 roll exch 0 exch rlineto 0 rlineto -1 mul 0 exch rlineto closepath } bind def
/p1  { stroke } bind def
/p2  { gsave bg fill grestore newpath } bind def
/p3  { gsave bg fill grestore stroke } bind def
/p6  { gsave bg eofill grestore newpath } bind def
/p7  { gsave bg eofill grestore stroke } bind def
/t   { 5 -2 roll moveto gsave rotate
       1 index stringwidth pop
       mul neg 0 rmoveto show grestore } bind def
/ta  { 4 -2 roll moveto gsave rotate show } bind def
/tb  { 2 -1 roll 0 rmoveto show } bind def
/cl  { grestore gsave newpath 3 index 3 index moveto 1 index
       4 -1 roll lineto  exch 1 index lineto lineto
       closepath clip newpath } bind def
/rgb { setrgbcolor } bind def
/s   { scalefont setfont } bind def
% end   .ps.prolog
/sRGB { [ /CIEBasedABC
          << /DecodeLMN
               [ { dup 0.03928 le
                        {12.92321 div}
                        {0.055 add 1.055 div 2.4 exp }
                     ifelse
                 } bind dup dup
               ]
             /MatrixLMN [0.412457 0.212673 0.019334
                         0.357576 0.715152 0.119192
                         0.180437 0.072175 0.950301]
             /WhitePoint [0.9505 1.0 1.0890]
           >>
         ] setcolorspace } bind def
/srgb { setcolor } bind def
% begin encoding
/WinAnsiEncoding [
 /.notdef /.notdef /.notdef /.notdef /.notdef /.notdef /.notdef /.notdef
 /.notdef /.notdef /.notdef /.notdef /.notdef /.notdef /.notdef /.notdef
 /.notdef /.notdef /.notdef /.notdef /.notdef /.notdef /.notdef /.notdef
 /.notdef /.notdef /.notdef /.notdef /.notdef /.notdef /.notdef /.notdef
 /space /exclam /quotedbl /numbersign /dollar /percent /ampersand /quoteright
 /parenleft /parenright /asterisk /plus /comma /minus /period /slash
 /zero /one /two /three /four /five /six /seven
 /eight /nine /colon /semicolon /less /equal /greater /question
 /at /A /B /C /D /E /F /G
 /H /I /J /K /L /M /N /O
 /P /Q /R /S /T /U /V /W
 /X /Y /Z /bracketleft /backslash /bracketright /asciicircum /underscore
 /grave /a /b /c /d /e /f /g
 /h /i /j /k /l /m /n /o
 /p /q /r /s /t /u /v /w
 /x /y /z /braceleft /bar /braceright /asciitilde /.notdef
 /Euro /.notdef /quotesinglbase /florin /quotedblbase /ellipsis /dagger /daggerdbl
 /circumflex /perthousand /Scaron /guilsinglleft /OE /.notdef /Zcaron /.notdef
 /.notdef /quoteleft /quoteright /quotedblleft /quotedblright /bullet /endash /emdash
 /tilde /trademark /scaron /guilsinglright /oe /.notdef /zcaron /Ydieresis
 /space /exclamdown /cent /sterling /currency /yen /brokenbar /section
 /dieresis /copyright /ordfeminine /guillemotleft /logicalnot /hyphen /registered /macron
 /degree /plusminus /twosuperior /threesuperior /acute /mu /paragraph /periodcentered
 /cedilla /onesuperior /ordmasculine /guillemotright /onequarter /onehalf /threequarters /questiondown
 /Agrave /Aacute /Acircumflex /Atilde /Adieresis /Aring /AE /Ccedilla
 /Egrave /Eacute /Ecircumflex /Edieresis /Igrave /Iacute /Icircumflex /Idieresis
 /Eth /Ntilde /Ograve /Oacute /Ocircumflex /Otilde /Odieresis /multiply
 /Oslash /Ugrave /Uacute /Ucircumflex /Udieresis /Yacute /Thorn /germandbls
 /agrave /aacute /acircumflex /atilde /adieresis /aring /ae /ccedilla
 /egrave /eacute /ecircumflex /edieresis /igrave /iacute /icircumflex /idieresis
 /eth /ntilde /ograve /oacute /ocircumflex /otilde /odieresis /divide
 /oslash /ugrave /uacute /ucircumflex /udieresis /yacute /thorn /ydieresis
]
 def
% end encoding
%%IncludeResource: font Helvetica
/Helvetica findfont
dup length dict begin
  {1 index /FID ne {def} {pop pop} ifelse} forall
  /Encoding WinAnsiEncoding def
  currentdict
  end
/Font1 exch definefont pop
%%IncludeResource: font Helvetica-Bold
/Helvetica-Bold findfont
dup length dict begin
  {1 index /FID ne {def} {pop pop} ifelse} forall
  /Encoding WinAnsiEncoding def
  currentdict
  end
/Font2 exch definefont pop
%%IncludeResource: font Helvetica-Oblique
/Helvetica-Oblique findfont
dup length dict begin
  {1 index /FID ne {def} {pop pop} ifelse} forall
  /Encoding WinAnsiEncoding def
  currentdict
  end
/Font3 exch definefont pop
%%IncludeResource: font Helvetica-BoldOblique
/Helvetica-BoldOblique findfont
dup length dict begin
  {1 index /FID ne {def} {pop pop} ifelse} forall
  /Encoding WinAnsiEncoding def
  currentdict
  end
/Font4 exch definefont pop
%%IncludeResource: font Symbol
/Symbol findfont
dup length dict begin
  {1 index /FID ne {def} {pop pop} ifelse} forall
  currentdict
  end
/Font5 exch definefont pop
%%EndProlog
%%Page: 1 1
bp
/bg { 1 1 1 srgb } def
0.00 0.00 450.00 375.00 r p2
59.04 73.44 419.76 315.96 cl
0 0 0 srgb
0.75 setlinewidth
[] 0 setdash
1 setlinecap
1 setlinejoin
10.00 setmiterlimit
139.20 92.84 2.70 c p1
189.30 107.63 2.70 c p1
239.40 162.94 2.70 c p1
289.50 236.66 2.70 c p1
339.60 269.55 2.70 c p1
0.00 0.00 450.00 375.00 cl
0 0 0 srgb
0.75 setlinewidth
[] 0 setdash
1 setlinecap
1 setlinejoin
10.00 setmiterlimit
np
105.80 73.44 m
267.20 0 l
o
np
105.80 73.44 m
0 -7.20 l
o
np
172.60 73.44 m
0 -7.20 l
o
np
239.40 73.44 m
0 -7.20 l
o
np
306.20 73.44 m
0 -7.20 l
o
np
373.00 73.44 m
0 -7.20 l
o
/Font1 findfont 12 s
105.80 47.52 (-0.4) .5 0 t
172.60 47.52 (-0.2) .5 0 t
239.40 47.52 (0.0) .5 0 t
306.20 47.52 (0.2) .5 0 t
373.00 47.52 (0.4) .5 0 t
np
59.04 82.42 m
0 224.56 l
o
np
59.04 82.42 m
-7.20 0 l
o
np
59.04 127.33 m
-7.20 0 l
o
np
59.04 172.24 m
-7.20 0 l
o
np
59.04 217.16 m
-7.20 0 l
o
np
59.04 262.07 m
-7.20 0 l
o
np
59.04 306.98 m
-7.20 0 l
o
41.76 82.42 (0) .5 90 t
41.76 127.33 (20) .5 90 t
41.76 172.24 (40) .5 90 t
41.76 217.16 (60) .5 90 t
41.76 262.07 (80) .5 90 t
41.76 306.98 (100) .5 90 t
np
59.04 73.44 m
360.72 0 l
0 242.52 l
-360.72 0 l
0 -242.52 l
o
0.00 0.00 450.00 375.00 cl
/Font2 findfont 14 s
0 0 0 srgb
239.40 340.45 (Comparison Side/Center) .5 0 t
/Font1 findfont 12 s
182.06 18.72 (Relativ) 0 ta
-0.300 (e Distance \(m\)) tb gr
12.96 110.68 (Ref) 90 ta
-0.360 (erence perceiv) tb
-0.300 (ed closer \(%\)) tb gr
59.04 73.44 419.76 315.96 cl
0 0 0 srgb
0.75 setlinewidth
[] 0 setdash
1 setlinecap
1 setlinejoin
10.00 setmiterlimit
139.20 118.49 2.70 c p1
189.30 154.47 2.70 c p1
239.40 228.27 2.70 c p1
289.50 279.62 2.70 c p1
339.60 294.69 2.70 c p1
1 0 0 srgb
np
72.40 84.29 m
3.37 0.16 l
3.38 0.18 l
3.37 0.19 l
3.37 0.21 l
3.38 0.22 l
3.37 0.25 l
3.38 0.27 l
3.37 0.29 l
3.37 0.31 l
3.38 0.35 l
3.37 0.37 l
3.37 0.40 l
3.38 0.44 l
3.37 0.47 l
3.38 0.51 l
3.37 0.56 l
3.37 0.60 l
3.38 0.65 l
3.37 0.70 l
3.37 0.76 l
3.38 0.82 l
3.37 0.89 l
3.38 0.96 l
3.37 1.03 l
3.37 1.11 l
3.38 1.19 l
3.37 1.29 l
3.37 1.38 l
3.38 1.48 l
3.37 1.59 l
3.38 1.71 l
3.37 1.82 l
3.37 1.94 l
3.38 2.07 l
3.37 2.21 l
3.37 2.35 l
3.38 2.48 l
3.37 2.64 l
3.38 2.79 l
3.37 2.94 l
3.37 3.09 l
3.38 3.25 l
3.37 3.40 l
3.37 3.55 l
3.38 3.71 l
3.37 3.84 l
3.38 3.99 l
3.37 4.12 l
3.37 4.24 l
3.38 4.35 l
3.37 4.45 l
3.37 4.54 l
3.38 4.61 l
3.37 4.68 l
3.38 4.71 l
3.37 4.74 l
3.37 4.75 l
3.38 4.74 l
3.37 4.72 l
3.37 4.67 l
3.38 4.62 l
3.37 4.55 l
3.38 4.45 l
3.37 4.36 l
3.37 4.25 l
3.38 4.13 l
3.37 4.00 l
3.37 3.86 l
3.38 3.71 l
3.37 3.57 l
3.38 3.41 l
3.37 3.26 l
3.37 3.11 l
3.38 2.95 l
3.37 2.80 l
3.37 2.64 l
3.38 2.50 l
3.37 2.36 l
3.38 2.22 l
3.37 2.08 l
3.37 1.96 l
3.38 1.83 l
3.37 1.71 l
3.37 1.60 l
3.38 1.49 l
3.37 1.39 l
3.38 1.29 l
3.37 1.20 l
3.37 1.12 l
3.38 1.04 l
3.37 0.96 l
3.37 0.89 l
3.38 0.83 l
3.37 0.76 l
3.38 0.71 l
3.37 0.65 l
3.37 0.61 l
3.38 0.56 l
3.37 0.51 l
o
0 0 1 srgb
np
72.40 88.81 m
3.37 0.54 l
3.38 0.58 l
3.37 0.63 l
3.37 0.68 l
3.38 0.74 l
3.37 0.79 l
3.38 0.86 l
3.37 0.92 l
3.37 0.99 l
3.38 1.07 l
3.37 1.15 l
3.37 1.24 l
3.38 1.33 l
3.37 1.42 l
3.38 1.53 l
3.37 1.63 l
3.37 1.74 l
3.38 1.87 l
3.37 1.98 l
3.37 2.12 l
3.38 2.25 l
3.37 2.38 l
3.38 2.53 l
3.37 2.67 l
3.37 2.82 l
3.38 2.96 l
3.37 3.12 l
3.37 3.27 l
3.38 3.42 l
3.37 3.56 l
3.38 3.71 l
3.37 3.84 l
3.37 3.98 l
3.38 4.10 l
3.37 4.22 l
3.37 4.32 l
3.38 4.42 l
3.37 4.50 l
3.38 4.57 l
3.37 4.62 l
3.37 4.65 l
3.38 4.68 l
3.37 4.68 l
3.37 4.67 l
3.38 4.65 l
3.37 4.60 l
3.38 4.54 l
3.37 4.47 l
3.37 4.39 l
3.38 4.29 l
3.37 4.17 l
3.37 4.06 l
3.38 3.93 l
3.37 3.80 l
3.38 3.65 l
3.37 3.51 l
3.37 3.37 l
3.38 3.21 l
3.37 3.06 l
3.37 2.92 l
3.38 2.76 l
3.37 2.62 l
3.38 2.47 l
3.37 2.34 l
3.37 2.20 l
3.38 2.06 l
3.37 1.95 l
3.37 1.81 l
3.38 1.71 l
3.37 1.59 l
3.38 1.49 l
3.37 1.39 l
3.37 1.29 l
3.38 1.21 l
3.37 1.12 l
3.37 1.04 l
3.38 0.96 l
3.37 0.90 l
3.38 0.83 l
3.37 0.78 l
3.37 0.71 l
3.38 0.66 l
3.37 0.61 l
3.37 0.57 l
3.38 0.52 l
3.37 0.49 l
3.38 0.44 l
3.37 0.42 l
3.37 0.38 l
3.38 0.35 l
3.37 0.33 l
3.37 0.30 l
3.38 0.27 l
3.37 0.26 l
3.38 0.23 l
3.37 0.22 l
3.37 0.20 l
3.38 0.18 l
3.37 0.17 l
o
0 0 0 srgb
np
139.20 86.73 m
0 12.22 l
o
np
135.60 86.73 m
3.60 0 l
3.60 0 l
o
np
142.80 98.95 m
-3.60 0 l
-3.60 0 l
o
np
189.30 98.45 m
0 18.35 l
o
np
185.70 98.45 m
3.60 0 l
3.60 0 l
o
np
192.90 116.80 m
-3.60 0 l
-3.60 0 l
o
np
239.40 149.01 m
0 27.87 l
o
np
235.80 149.01 m
3.60 0 l
3.60 0 l
o
np
243.00 176.88 m
-3.60 0 l
-3.60 0 l
o
np
289.50 223.18 m
0 26.96 l
o
np
285.90 223.18 m
3.60 0 l
3.60 0 l
o
np
293.10 250.14 m
-3.60 0 l
-3.60 0 l
o
np
339.60 258.72 m
0 21.66 l
o
np
336.00 258.72 m
3.60 0 l
3.60 0 l
o
np
343.20 280.38 m
-3.60 0 l
-3.60 0 l
o
np
139.20 107.82 m
0 21.34 l
o
np
135.60 107.82 m
3.60 0 l
3.60 0 l
o
np
142.80 129.16 m
-3.60 0 l
-3.60 0 l
o
np
189.30 140.90 m
0 27.14 l
o
np
185.70 140.90 m
3.60 0 l
3.60 0 l
o
np
192.90 168.04 m
-3.60 0 l
-3.60 0 l
o
np
239.40 214.40 m
0 27.74 l
o
np
235.80 214.40 m
3.60 0 l
3.60 0 l
o
np
243.00 242.14 m
-3.60 0 l
-3.60 0 l
o
np
289.50 270.11 m
0 19.02 l
o
np
285.90 270.11 m
3.60 0 l
3.60 0 l
o
np
293.10 289.13 m
-3.60 0 l
-3.60 0 l
o
np
339.60 288.08 m
0 13.22 l
o
np
336.00 288.08 m
3.60 0 l
3.60 0 l
o
np
343.20 301.30 m
-3.60 0 l
-3.60 0 l
o
/bg { 1 1 1 srgb } def
306.20 127.33 90.04 -35.42 r p3
0 0 1 srgb
1.88 setlinewidth
[] 0 setdash
np
316.76 115.53 m
21.12 0 l
o
1 0 0 srgb
np
316.76 103.72 m
21.12 0 l
o
/Font1 findfont 12 s
0 0 0 srgb
348.43 111.22 (Front ref) 0 0 t
348.43 99.41 (Side ref) 0 0 t
1 0 0 srgb
0.75 setlinewidth
[ 0.00 3.00] 0 setdash
np
263.15 59.97 m
0 134.73 l
-23.75 0 l
o
0 0 1 srgb
np
215.17 59.97 m
0 134.73 l
24.23 0 l
o
0 0 0 srgb
0.75 setlinewidth
[ 2.25 3.75] 0 setdash
np
239.40 73.44 m
0 242.52 l
o
0.00 0.00 450.00 375.00 cl
/Font1 findfont 12 s
1 0 0 srgb
263.15 57.60 (PSE) .5 0 t
263.15 43.20 ( 0.07) .5 0 t
0 0 1 srgb
215.17 57.60 (PSE) .5 0 t
215.17 43.20 ( -0.07) .5 0 t
ep
%%Trailer
%%Pages: 1
%%EOF
