%!PS-Adobe-3.0 EPSF-3.0
%%Creator: cairo 1.15.10 (http://cairographics.org)
%%CreationDate: Tue Sep 04 16:17:57 2018
%%Pages: 1
%%DocumentData: Clean7Bit
%%LanguageLevel: 2
%%BoundingBox: 0 0 537 325
%%EndComments
%%BeginProlog
50 dict begin
/q { gsave } bind def
/Q { grestore } bind def
/cm { 6 array astore concat } bind def
/w { setlinewidth } bind def
/J { setlinecap } bind def
/j { setlinejoin } bind def
/M { setmiterlimit } bind def
/d { setdash } bind def
/m { moveto } bind def
/l { lineto } bind def
/c { curveto } bind def
/h { closepath } bind def
/re { exch dup neg 3 1 roll 5 3 roll moveto 0 rlineto
      0 exch rlineto 0 rlineto closepath } bind def
/S { stroke } bind def
/f { fill } bind def
/f* { eofill } bind def
/n { newpath } bind def
/W { clip } bind def
/W* { eoclip } bind def
/BT { } bind def
/ET { } bind def
/BDC { mark 3 1 roll /BDC pdfmark } bind def
/EMC { mark /EMC pdfmark } bind def
/cairo_store_point { /cairo_point_y exch def /cairo_point_x exch def } def
/Tj { show currentpoint cairo_store_point } bind def
/TJ {
  {
    dup
    type /stringtype eq
    { show } { -0.001 mul 0 cairo_font_matrix dtransform rmoveto } ifelse
  } forall
  currentpoint cairo_store_point
} bind def
/cairo_selectfont { cairo_font_matrix aload pop pop pop 0 0 6 array astore
    cairo_font exch selectfont cairo_point_x cairo_point_y moveto } bind def
/Tf { pop /cairo_font exch def /cairo_font_matrix where
      { pop cairo_selectfont } if } bind def
/Td { matrix translate cairo_font_matrix matrix concatmatrix dup
      /cairo_font_matrix exch def dup 4 get exch 5 get cairo_store_point
      /cairo_font where { pop cairo_selectfont } if } bind def
/Tm { 2 copy 8 2 roll 6 array astore /cairo_font_matrix exch def
      cairo_store_point /cairo_font where { pop cairo_selectfont } if } bind def
/g { setgray } bind def
/rg { setrgbcolor } bind def
/d1 { setcachedevice } bind def
/cairo_data_source {
  CairoDataIndex CairoData length lt
    { CairoData CairoDataIndex get /CairoDataIndex CairoDataIndex 1 add def }
    { () } ifelse
} def
/cairo_flush_ascii85_file { cairo_ascii85_file status { cairo_ascii85_file flushfile } if } def
/cairo_image { image cairo_flush_ascii85_file } def
/cairo_imagemask { imagemask cairo_flush_ascii85_file } def
%%EndProlog
%%BeginSetup
%%EndSetup
%%Page: 1 1
%%BeginPageSetup
%%PageBoundingBox: 0 0 537 325
%%EndPageSetup
q 0 0 537 325 rectclip
1 0 0 -1 0 325 cm q
1 g
0 0 537 325 rectfill
0.4 g
0.375 w
1 J
1 j
[ 0.75 1.5] 0 d
10 M q 1 0 0 1 0 0 cm
510.922 286.746 m 510.801 278.504 l 510.434 270.273 l 509.824 262.055 l
 508.969 253.867 l 507.871 245.707 l 506.535 237.59 l 504.957 229.523 l 
503.141 221.516 l 501.086 213.57 l 498.801 205.703 l 496.281 197.914 l 493.531
 190.215 l 490.555 182.613 l 487.352 175.117 l 483.93 167.73 l 480.293 160.469
 l 476.441 153.332 l 472.379 146.328 l 468.109 139.465 l 463.641 132.754
 l 458.977 126.195 l 454.117 119.797 l 449.07 113.57 l 443.844 107.516 l
 438.438 101.641 l 432.863 95.953 l 427.121 90.457 l 421.219 85.16 l 415.16
 80.066 l 408.957 75.18 l 402.609 70.508 l 396.129 66.051 l 389.52 61.816
 l 382.785 57.809 l 375.938 54.031 l 368.98 50.492 l 361.922 47.188 l 354.77
 44.125 l 347.531 41.305 l 340.211 38.734 l 332.816 36.41 l 325.359 34.34
 l 317.844 32.527 l 310.277 30.965 l 302.672 29.664 l 295.027 28.621 l 287.355
 27.836 l 279.668 27.313 l 271.969 27.055 l 264.262 27.055 l 256.563 27.313
 l 248.871 27.836 l 241.203 28.621 l 233.559 29.664 l 225.953 30.965 l 218.387
 32.527 l 210.871 34.34 l 203.414 36.41 l 196.02 38.734 l 188.699 41.305
 l 181.461 44.125 l 174.309 47.188 l 167.25 50.492 l 160.293 54.031 l 153.445
 57.809 l 146.711 61.816 l 140.102 66.051 l 133.617 70.508 l 127.273 75.18
 l 121.066 80.066 l 115.012 85.16 l 109.109 90.457 l 103.367 95.953 l 97.793
 101.641 l 92.387 107.516 l 87.16 113.57 l 82.113 119.797 l 77.254 126.195
 l 72.59 132.754 l 68.121 139.465 l 63.852 146.328 l 59.789 153.332 l 55.938
 160.469 l 52.297 167.73 l 48.879 175.117 l 45.676 182.613 l 42.699 190.215
 l 39.949 197.914 l 37.43 205.703 l 35.141 213.57 l 33.09 221.516 l 31.273
 229.523 l 29.695 237.59 l 28.355 245.707 l 27.262 253.867 l 26.406 262.055
 l 25.797 270.273 l 25.43 278.504 l 25.309 286.746 l S Q
[ 0.75 1.5] 0 d
q 1 0 0 1 0 0 cm
519.297 286.746 m 519.168 278.219 l 518.789 269.703 l 518.156 261.203 l
 517.273 252.73 l 516.141 244.293 l 514.758 235.898 l 513.125 227.551 l 
511.246 219.266 l 509.121 211.047 l 506.754 202.906 l 504.148 194.852 l 
501.305 186.887 l 498.223 179.023 l 494.914 171.266 l 491.371 163.629 l 
487.609 156.113 l 483.625 148.73 l 479.422 141.484 l 475.008 134.387 l 470.383
 127.441 l 465.555 120.656 l 460.531 114.039 l 455.313 107.598 l 449.902
 101.332 l 444.313 95.258 l 438.543 89.375 l 432.602 83.691 l 426.496 78.211
 l 420.23 72.938 l 413.813 67.883 l 407.25 63.051 l 400.543 58.441 l 393.707
 54.063 l 386.738 49.914 l 379.656 46.008 l 372.461 42.344 l 365.156 38.926
 l 357.758 35.758 l 350.27 32.84 l 342.695 30.18 l 335.047 27.777 l 327.332
 25.637 l 319.559 23.758 l 311.73 22.145 l 303.863 20.801 l 295.957 19.719
 l 288.02 18.91 l 280.066 18.367 l 272.102 18.098 l 264.129 18.098 l 256.164
 18.367 l 248.207 18.91 l 240.273 19.719 l 232.367 20.801 l 224.496 22.145
 l 216.672 23.758 l 208.898 25.637 l 201.184 27.777 l 193.535 30.18 l 185.961
 32.84 l 178.473 35.758 l 171.074 38.926 l 163.77 42.344 l 156.574 46.008
 l 149.488 49.914 l 142.523 54.063 l 135.688 58.441 l 128.98 63.051 l 122.414
 67.883 l 115.996 72.938 l 109.73 78.211 l 103.625 83.691 l 97.688 89.375
 l 91.918 95.258 l 86.328 101.332 l 80.918 107.598 l 75.699 114.039 l 70.672
 120.656 l 65.848 127.441 l 61.223 134.387 l 56.809 141.484 l 52.605 148.73
 l 48.621 156.113 l 44.855 163.629 l 41.316 171.266 l 38.008 179.023 l 34.926
 186.887 l 32.082 194.852 l 29.477 202.906 l 27.109 211.047 l 24.984 219.266
 l 23.105 227.551 l 21.473 235.898 l 20.09 244.293 l 18.957 252.73 l 18.07
 261.203 l 17.441 269.703 l 17.063 278.219 l 16.934 286.746 l S Q
[ 0.75 1.5] 0 d
q 1 0 0 1 0 0 cm
527.668 286.746 m 527.539 277.938 l 527.145 269.137 l 526.492 260.355 l
 525.578 251.598 l 524.406 242.879 l 522.977 234.203 l 521.289 225.578 l
 519.348 217.016 l 517.156 208.527 l 514.707 200.113 l 512.016 191.789 l
 509.074 183.559 l 505.895 175.434 l 502.473 167.418 l 498.816 159.523 l
 494.926 151.758 l 490.809 144.129 l 486.465 136.645 l 481.902 129.309 l
 477.125 122.133 l 472.137 115.121 l 466.945 108.285 l 461.551 101.625 l
 455.961 95.152 l 450.184 88.875 l 444.223 82.797 l 438.086 76.922 l 431.777
 71.258 l 425.305 65.813 l 418.672 60.59 l 411.887 55.594 l 404.957 50.828
 l 397.891 46.305 l 390.695 42.02 l 383.375 37.984 l 375.938 34.199 l 368.391
 30.664 l 360.746 27.391 l 353.008 24.379 l 345.18 21.629 l 337.277 19.148
 l 329.309 16.934 l 321.273 14.992 l 313.188 13.324 l 305.055 11.934 l 296.883
 10.82 l 288.684 9.98 l 280.465 9.422 l 272.234 9.145 l 263.996 9.145 l 
255.766 9.422 l 247.547 9.98 l 239.348 10.82 l 231.176 11.934 l 223.043 
13.324 l 214.957 14.992 l 206.922 16.934 l 198.949 19.148 l 191.047 21.629
 l 183.223 24.379 l 175.484 27.391 l 167.836 30.664 l 160.293 34.199 l 152.855
 37.984 l 145.535 42.02 l 138.34 46.305 l 131.273 50.828 l 124.344 55.594
 l 117.559 60.59 l 110.926 65.813 l 104.453 71.258 l 98.145 76.922 l 92.004
 82.797 l 86.043 88.875 l 80.266 95.152 l 74.68 101.625 l 69.285 108.285
 l 64.094 115.121 l 59.105 122.133 l 54.328 129.309 l 49.766 136.645 l 45.422
 144.129 l 41.305 151.758 l 37.414 159.523 l 33.758 167.418 l 30.336 175.434
 l 27.152 183.559 l 24.215 191.789 l 21.52 200.113 l 19.074 208.527 l 16.879
 217.016 l 14.938 225.578 l 13.254 234.203 l 11.82 242.879 l 10.648 251.598
 l 9.738 260.355 l 9.086 269.137 l 8.691 277.938 l 8.563 286.746 l S Q
[ 0.75 1.5] 0 d
q 1 0 0 1 0 0 cm
536.039 286.746 m 535.906 277.652 l 535.5 268.566 l 534.828 259.504 l 533.887
 250.465 l 532.676 241.461 l 531.199 232.508 l 529.457 223.605 l 527.453
 214.77 l 525.188 206.004 l 522.664 197.316 l 519.883 188.723 l 516.848 
180.23 l 513.563 171.84 l 510.031 163.57 l 506.258 155.422 l 502.242 147.406
 l 497.992 139.527 l 493.508 131.801 l 488.801 124.23 l 483.867 116.82 l
 478.719 109.586 l 473.359 102.527 l 467.789 95.652 l 462.023 88.973 l 456.059
 82.492 l 449.906 76.215 l 443.57 70.152 l 437.055 64.309 l 430.375 58.684
 l 423.527 53.293 l 416.523 48.137 l 409.371 43.219 l 402.078 38.547 l 394.648
 34.125 l 387.094 29.961 l 379.414 26.051 l 371.625 22.406 l 363.734 19.023
 l 355.746 15.914 l 347.668 13.078 l 339.512 10.516 l 331.281 8.23 l 322.988
 6.227 l 314.641 4.508 l 306.246 3.07 l 297.813 1.918 l 289.348 1.055 l 
280.863 0.477 l 272.367 0.188 l 263.863 0.188 l 255.367 0.477 l 246.883 
1.055 l 238.418 1.918 l 229.984 3.07 l 221.59 4.508 l 213.242 6.227 l 204.949
 8.23 l 196.719 10.516 l 188.563 13.078 l 180.484 15.914 l 172.496 19.023
 l 164.602 22.406 l 156.813 26.051 l 149.137 29.961 l 141.582 34.125 l 134.152
 38.547 l 126.859 43.219 l 119.707 48.137 l 112.703 53.293 l 105.855 58.684
 l 99.172 64.309 l 92.66 70.152 l 86.324 76.215 l 80.172 82.492 l 74.207
 88.973 l 68.438 95.652 l 62.871 102.527 l 57.512 109.586 l 52.363 116.82
 l 47.43 124.23 l 42.723 131.801 l 38.238 139.527 l 33.988 147.406 l 29.973
 155.422 l 26.199 163.57 l 22.664 171.84 l 19.383 180.23 l 16.348 188.723
 l 13.566 197.316 l 11.043 206.004 l 8.777 214.77 l 6.773 223.605 l 5.031
 232.508 l 3.555 241.461 l 2.344 250.465 l 1.402 259.504 l 0.727 268.566
 l 0.324 277.652 l 0.188 286.746 l S Q
0 g
1.5 w
[] 0.0 d
q 1 0 0 1 0 0 cm
519.297 286.746 m 519.168 278.219 l 518.789 269.703 l 518.156 261.203 l
 517.273 252.73 l 516.141 244.293 l 514.758 235.898 l 513.125 227.551 l 
511.246 219.266 l 509.121 211.047 l 506.754 202.906 l 504.148 194.852 l 
501.305 186.887 l 498.223 179.023 l 494.914 171.266 l 491.371 163.629 l 
487.609 156.113 l 483.625 148.73 l 479.422 141.484 l 475.008 134.387 l 470.383
 127.441 l 465.555 120.656 l 460.531 114.039 l 455.313 107.598 l 449.902
 101.332 l 444.313 95.258 l 438.543 89.375 l 432.602 83.691 l 426.496 78.211
 l 420.23 72.938 l 413.813 67.883 l 407.25 63.051 l 400.543 58.441 l 393.707
 54.063 l 386.738 49.914 l 379.656 46.008 l 372.461 42.344 l 365.156 38.926
 l 357.758 35.758 l 350.27 32.84 l 342.695 30.18 l 335.047 27.777 l 327.332
 25.637 l 319.559 23.758 l 311.73 22.145 l 303.863 20.801 l 295.957 19.719
 l 288.02 18.91 l 280.066 18.367 l 272.102 18.098 l 264.129 18.098 l 256.164
 18.367 l 248.207 18.91 l 240.273 19.719 l 232.367 20.801 l 224.496 22.145
 l 216.672 23.758 l 208.898 25.637 l 201.184 27.777 l 193.535 30.18 l 185.961
 32.84 l 178.473 35.758 l 171.074 38.926 l 163.77 42.344 l 156.574 46.008
 l 149.488 49.914 l 142.523 54.063 l 135.688 58.441 l 128.98 63.051 l 122.414
 67.883 l 115.996 72.938 l 109.73 78.211 l 103.625 83.691 l 97.688 89.375
 l 91.918 95.258 l 86.328 101.332 l 80.918 107.598 l 75.699 114.039 l 70.672
 120.656 l 65.848 127.441 l 61.223 134.387 l 56.809 141.484 l 52.605 148.73
 l 48.621 156.113 l 44.855 163.629 l 41.316 171.266 l 38.008 179.023 l 34.926
 186.887 l 32.082 194.852 l 29.477 202.906 l 27.109 211.047 l 24.984 219.266
 l 23.105 227.551 l 21.473 235.898 l 20.09 244.293 l 18.957 252.73 l 18.07
 261.203 l 17.441 269.703 l 17.063 278.219 l 16.934 286.746 l S Q
1 0 0 rg
2.25 w
q 1 0 0 1 0 0 cm
41.523 146.809 m 83.211 88.957 l 139.984 49.352 l 202.715 25.66 l 268.113
 18.063 l 333.516 25.66 l 396.246 49.352 l 453.02 88.957 l 494.707 146.809
 l S Q
0 g
269.914 286.746 m 269.914 289.145 266.316 289.145 266.316 286.746 c 266.316
 284.344 269.914 284.344 269.914 286.746 c f
0.75 w
q 1 0 0 1 0 0 cm
269.914 286.746 m 269.914 289.145 266.316 289.145 266.316 286.746 c 266.316
 284.344 269.914 284.344 269.914 286.746 c S Q
1 g
305.848 280.344 m 305.848 304.746 288.727 324.527 267.602 324.527 c 246.48
 324.527 229.355 304.746 229.355 280.344 c 229.355 255.945 246.48 236.164
 267.602 236.164 c 288.727 236.164 305.848 255.945 305.848 280.344 c h
305.848 280.344 m f
0 g
0.850394 w
0 J
0 j
4 M q 1 0 0 1 0 0 cm
305.848 280.344 m 305.848 304.746 288.727 324.527 267.602 324.527 c 246.48
 324.527 229.355 304.746 229.355 280.344 c 229.355 255.945 246.48 236.164
 267.602 236.164 c 288.727 236.164 305.848 255.945 305.848 280.344 c h
305.848 280.344 m S Q
1 g
231.969 237.844 71.07 28.074 re f
0 g
1.083595 w
q 1 0 0 1 0 0 cm
231.969 237.844 71.07 28.074 re S Q
1 g
231.184 266.773 m 231.184 258.883 247.48 252.484 267.586 252.484 c 287.695
 252.484 303.992 258.883 303.992 266.773 c f
0 g
0.850125 w
q 1 0 0 1 0 0 cm
231.184 266.773 m 231.184 258.883 247.48 252.484 267.586 252.484 c 287.695
 252.484 303.992 258.883 303.992 266.773 c S Q
Q Q
showpage
%%Trailer
end
%%EOF
